<svg width="540" height="74" viewBox="0 0 540 74" fill="none" xmlns="http://www.w3.org/2000/svg">
<mask id="path-1-outside-1_343_367" maskUnits="userSpaceOnUse" x="-1" y="-1" width="542" height="76" fill="black">
<rect fill="white" x="-1" y="-1" width="542" height="76"/>
<path d="M43.84 46.16C44.3467 46.16 44.7867 46.36 45.16 46.76L48.88 50.8C46.5333 53.6267 43.6533 55.8133 40.24 57.36C36.8267 58.88 32.7467 59.64 28 59.64C23.7867 59.64 19.9733 58.92 16.56 57.48C13.1733 56.0133 10.28 53.9867 7.88 51.4C5.48 48.7867 3.62667 45.68 2.32 42.08C1.04 38.48 0.4 34.52 0.4 30.2C0.4 25.88 1.08 21.92 2.44 18.32C3.82667 14.6933 5.76 11.5867 8.24 9C10.7467 6.38667 13.7333 4.36 17.2 2.92C20.6933 1.48 24.5333 0.759996 28.72 0.759996C32.88 0.759996 36.5467 1.44 39.72 2.8C42.92 4.13333 45.6933 5.92 48.04 8.16L44.96 12.52C44.7467 12.8133 44.4933 13.0667 44.2 13.28C43.9067 13.4933 43.5067 13.6 43 13.6C42.4667 13.6 41.8533 13.36 41.16 12.88C40.4933 12.3733 39.6267 11.8267 38.56 11.24C37.52 10.6267 36.2 10.08 34.6 9.6C33.0267 9.09333 31.0533 8.84 28.68 8.84C25.9333 8.84 23.4133 9.32 21.12 10.28C18.8267 11.24 16.8533 12.64 15.2 14.48C13.5467 16.32 12.2533 18.56 11.32 21.2C10.4133 23.84 9.96 26.84 9.96 30.2C9.96 33.5867 10.44 36.6133 11.4 39.28C12.36 41.92 13.68 44.16 15.36 46C17.04 47.8133 19.0133 49.2 21.28 50.16C23.5467 51.12 25.9867 51.6 28.6 51.6C30.2 51.6 31.6267 51.52 32.88 51.36C34.16 51.1733 35.3333 50.8933 36.4 50.52C37.4667 50.12 38.4667 49.6267 39.4 49.04C40.36 48.4533 41.3067 47.7333 42.24 46.88C42.7733 46.4 43.3067 46.16 43.84 46.16ZM77.165 41.16C74.0983 41.2667 71.5117 41.52 69.405 41.92C67.2983 42.2933 65.5917 42.7867 64.285 43.4C62.9783 43.9867 62.0317 44.6933 61.445 45.52C60.885 46.3467 60.605 47.2533 60.605 48.24C60.605 49.2 60.7517 50.0267 61.045 50.72C61.365 51.3867 61.7917 51.9467 62.325 52.4C62.885 52.8267 63.525 53.1467 64.245 53.36C64.9917 53.5467 65.805 53.64 66.685 53.64C68.925 53.64 70.845 53.2267 72.445 52.4C74.0717 51.5467 75.645 50.32 77.165 48.72V41.16ZM54.365 23.88C58.9783 19.5867 64.4717 17.44 70.845 17.44C73.1917 17.44 75.2717 17.8267 77.085 18.6C78.925 19.3467 80.4583 20.4133 81.685 21.8C82.9383 23.1867 83.885 24.84 84.525 26.76C85.1917 28.6533 85.525 30.76 85.525 33.08V59H81.685C80.8583 59 80.2317 58.88 79.805 58.64C79.3783 58.3733 79.0183 57.8533 78.725 57.08L77.885 53.76C76.845 54.6933 75.8183 55.5333 74.805 56.28C73.7917 57 72.7383 57.6133 71.645 58.12C70.5783 58.6267 69.4183 59 68.165 59.24C66.9383 59.5067 65.5783 59.64 64.085 59.64C62.4317 59.64 60.885 59.4133 59.445 58.96C58.0317 58.5067 56.805 57.8267 55.765 56.92C54.725 55.9867 53.8983 54.84 53.285 53.48C52.6983 52.12 52.405 50.52 52.405 48.68C52.405 47.1067 52.8183 45.5733 53.645 44.08C54.4983 42.5867 55.885 41.2533 57.805 40.08C59.7517 38.88 62.2983 37.8933 65.445 37.12C68.6183 36.3467 72.525 35.9067 77.165 35.8V33.08C77.165 30.1467 76.5383 27.96 75.285 26.52C74.0317 25.08 72.1917 24.36 69.765 24.36C68.1117 24.36 66.725 24.5733 65.605 25C64.485 25.4 63.5117 25.84 62.685 26.32C61.8583 26.8 61.125 27.2533 60.485 27.68C59.845 28.08 59.165 28.28 58.445 28.28C57.8583 28.28 57.3517 28.1333 56.925 27.84C56.525 27.52 56.1917 27.1333 55.925 26.68L54.365 23.88ZM104.199 48.76C105.399 50.3067 106.706 51.4 108.119 52.04C109.559 52.6533 111.146 52.96 112.879 52.96C116.239 52.96 118.853 51.7333 120.719 49.28C122.613 46.8267 123.559 43.1733 123.559 38.32C123.559 35.8133 123.346 33.68 122.919 31.92C122.493 30.1333 121.879 28.68 121.079 27.56C120.279 26.44 119.306 25.6267 118.159 25.12C117.013 24.6133 115.719 24.36 114.279 24.36C112.093 24.36 110.199 24.84 108.599 25.8C107.026 26.7333 105.559 28.08 104.199 29.84V48.76ZM103.759 24.12C105.466 22.12 107.399 20.5067 109.559 19.28C111.746 18.0533 114.279 17.44 117.159 17.44C119.453 17.44 121.533 17.9067 123.399 18.84C125.266 19.7467 126.866 21.08 128.199 22.84C129.533 24.6 130.559 26.7867 131.279 29.4C132.026 31.9867 132.399 34.96 132.399 38.32C132.399 41.3333 131.986 44.1467 131.159 46.76C130.359 49.3467 129.199 51.6 127.679 53.52C126.159 55.4133 124.319 56.9067 122.159 58C119.999 59.0667 117.559 59.6 114.839 59.6C112.439 59.6 110.399 59.2133 108.719 58.44C107.066 57.6667 105.559 56.6 104.199 55.24V72.56H95.5994V18.2H100.799C101.973 18.2 102.719 18.7467 103.039 19.84L103.759 24.12ZM162.556 41.16C159.489 41.2667 156.902 41.52 154.796 41.92C152.689 42.2933 150.982 42.7867 149.676 43.4C148.369 43.9867 147.422 44.6933 146.836 45.52C146.276 46.3467 145.996 47.2533 145.996 48.24C145.996 49.2 146.142 50.0267 146.436 50.72C146.756 51.3867 147.182 51.9467 147.716 52.4C148.276 52.8267 148.916 53.1467 149.636 53.36C150.382 53.5467 151.196 53.64 152.076 53.64C154.316 53.64 156.236 53.2267 157.836 52.4C159.462 51.5467 161.036 50.32 162.556 48.72V41.16ZM139.756 23.88C144.369 19.5867 149.862 17.44 156.236 17.44C158.582 17.44 160.662 17.8267 162.476 18.6C164.316 19.3467 165.849 20.4133 167.076 21.8C168.329 23.1867 169.276 24.84 169.916 26.76C170.582 28.6533 170.916 30.76 170.916 33.08V59H167.076C166.249 59 165.622 58.88 165.196 58.64C164.769 58.3733 164.409 57.8533 164.116 57.08L163.276 53.76C162.236 54.6933 161.209 55.5333 160.196 56.28C159.182 57 158.129 57.6133 157.036 58.12C155.969 58.6267 154.809 59 153.556 59.24C152.329 59.5067 150.969 59.64 149.476 59.64C147.822 59.64 146.276 59.4133 144.836 58.96C143.422 58.5067 142.196 57.8267 141.156 56.92C140.116 55.9867 139.289 54.84 138.676 53.48C138.089 52.12 137.796 50.52 137.796 48.68C137.796 47.1067 138.209 45.5733 139.036 44.08C139.889 42.5867 141.276 41.2533 143.196 40.08C145.142 38.88 147.689 37.8933 150.836 37.12C154.009 36.3467 157.916 35.9067 162.556 35.8V33.08C162.556 30.1467 161.929 27.96 160.676 26.52C159.422 25.08 157.582 24.36 155.156 24.36C153.502 24.36 152.116 24.5733 150.996 25C149.876 25.4 148.902 25.84 148.076 26.32C147.249 26.8 146.516 27.2533 145.876 27.68C145.236 28.08 144.556 28.28 143.836 28.28C143.249 28.28 142.742 28.1333 142.316 27.84C141.916 27.52 141.582 27.1333 141.316 26.68L139.756 23.88ZM209.83 26.2C209.563 26.5467 209.31 26.8133 209.07 27C208.83 27.1867 208.483 27.28 208.03 27.28C207.577 27.28 207.097 27.12 206.59 26.8C206.11 26.48 205.523 26.1333 204.83 25.76C204.163 25.36 203.35 25 202.39 24.68C201.43 24.36 200.23 24.2 198.79 24.2C196.923 24.2 195.283 24.5333 193.87 25.2C192.483 25.8667 191.31 26.8267 190.35 28.08C189.417 29.3067 188.71 30.8133 188.23 32.6C187.777 34.36 187.55 36.3467 187.55 38.56C187.55 40.8533 187.803 42.8933 188.31 44.68C188.817 46.4667 189.537 47.9733 190.47 49.2C191.43 50.4267 192.577 51.36 193.91 52C195.27 52.64 196.79 52.96 198.47 52.96C200.123 52.96 201.47 52.76 202.51 52.36C203.55 51.96 204.417 51.52 205.11 51.04C205.803 50.56 206.39 50.12 206.87 49.72C207.377 49.32 207.91 49.12 208.47 49.12C209.163 49.12 209.697 49.3867 210.07 49.92L212.51 53.08C211.523 54.28 210.43 55.2933 209.23 56.12C208.03 56.9467 206.763 57.6267 205.43 58.16C204.097 58.6667 202.71 59.0267 201.27 59.24C199.83 59.48 198.377 59.6 196.91 59.6C194.377 59.6 192.003 59.1333 189.79 58.2C187.603 57.24 185.683 55.8667 184.03 54.08C182.403 52.2667 181.11 50.0667 180.15 47.48C179.217 44.8667 178.75 41.8933 178.75 38.56C178.75 35.5467 179.177 32.76 180.03 30.2C180.883 27.6133 182.123 25.3867 183.75 23.52C185.403 21.6533 187.443 20.2 189.87 19.16C192.297 18.0933 195.097 17.56 198.27 17.56C201.23 17.56 203.83 18.04 206.07 19C208.337 19.96 210.35 21.32 212.11 23.08L209.83 26.2ZM228.388 18.2V59H219.788V18.2H228.388ZM229.828 5.88C229.828 6.65333 229.668 7.38667 229.348 8.08C229.054 8.77333 228.641 9.38666 228.108 9.92C227.574 10.4267 226.948 10.84 226.228 11.16C225.534 11.4533 224.788 11.6 223.988 11.6C223.214 11.6 222.481 11.4533 221.788 11.16C221.121 10.84 220.534 10.4267 220.028 9.92C219.521 9.38666 219.108 8.77333 218.788 8.08C218.494 7.38667 218.348 6.65333 218.348 5.88C218.348 5.08 218.494 4.33333 218.788 3.64C219.108 2.94666 219.521 2.34666 220.028 1.84C220.534 1.30666 221.121 0.89333 221.788 0.599998C222.481 0.279996 223.214 0.119995 223.988 0.119995C224.788 0.119995 225.534 0.279996 226.228 0.599998C226.948 0.89333 227.574 1.30666 228.108 1.84C228.641 2.34666 229.054 2.94666 229.348 3.64C229.668 4.33333 229.828 5.08 229.828 5.88ZM252.273 59.64C248.886 59.64 246.273 58.6933 244.433 56.8C242.62 54.88 241.713 52.1867 241.713 48.72V24.96H237.233C236.753 24.96 236.34 24.8133 235.993 24.52C235.646 24.2 235.473 23.7333 235.473 23.12V19.64L242.073 18.68L243.953 6.88C244.086 6.42666 244.313 6.06666 244.633 5.8C244.953 5.50666 245.38 5.36 245.913 5.36H250.313V18.76H261.633V24.96H250.313V48.12C250.313 49.5867 250.673 50.7067 251.393 51.48C252.113 52.2533 253.073 52.64 254.273 52.64C254.94 52.64 255.513 52.56 255.993 52.4C256.473 52.2133 256.886 52.0267 257.233 51.84C257.58 51.6267 257.873 51.44 258.113 51.28C258.38 51.0933 258.633 51 258.873 51C259.353 51 259.74 51.2667 260.033 51.8L262.593 56C261.26 57.1733 259.686 58.08 257.873 58.72C256.06 59.3333 254.193 59.64 252.273 59.64ZM304.612 18.2L282.132 70.6C281.839 71.2133 281.479 71.6933 281.052 72.04C280.652 72.3867 280.025 72.56 279.172 72.56H272.812L280.332 56.24L263.692 18.2H271.172C271.892 18.2 272.439 18.3733 272.812 18.72C273.212 19.04 273.505 19.4267 273.692 19.88L283.412 43.04C283.652 43.7067 283.865 44.3733 284.052 45.04C284.265 45.68 284.465 46.3467 284.652 47.04C284.865 46.3467 285.079 45.6667 285.292 45C285.505 44.3333 285.745 43.6667 286.012 43L295.332 19.88C295.519 19.4 295.825 19 296.252 18.68C296.705 18.36 297.199 18.2 297.732 18.2H304.612ZM346.498 29C348.631 29 350.498 28.7467 352.098 28.24C353.698 27.7067 355.031 26.9733 356.098 26.04C357.164 25.1067 357.964 24 358.498 22.72C359.031 21.4133 359.298 19.9733 359.298 18.4C359.298 15.2533 358.258 12.8533 356.178 11.2C354.098 9.54666 350.951 8.72 346.738 8.72H339.138V29H346.498ZM373.618 59H365.258C363.604 59 362.404 58.36 361.658 57.08L348.218 37.68C347.764 37.0133 347.271 36.5333 346.738 36.24C346.204 35.9467 345.404 35.8 344.338 35.8H339.138V59H329.778V1.4H346.738C350.524 1.4 353.778 1.78666 356.498 2.56C359.244 3.33333 361.498 4.44 363.258 5.88C365.018 7.29333 366.311 9 367.138 11C367.991 13 368.418 15.2267 368.418 17.68C368.418 19.68 368.111 21.5467 367.498 23.28C366.911 25.0133 366.044 26.5867 364.898 28C363.778 29.4133 362.391 30.64 360.738 31.68C359.084 32.72 357.204 33.5333 355.098 34.12C356.244 34.8133 357.231 35.7867 358.058 37.04L373.618 59ZM400.134 41.16C397.067 41.2667 394.48 41.52 392.374 41.92C390.267 42.2933 388.56 42.7867 387.254 43.4C385.947 43.9867 385 44.6933 384.414 45.52C383.854 46.3467 383.574 47.2533 383.574 48.24C383.574 49.2 383.72 50.0267 384.014 50.72C384.334 51.3867 384.76 51.9467 385.294 52.4C385.854 52.8267 386.494 53.1467 387.214 53.36C387.96 53.5467 388.774 53.64 389.654 53.64C391.894 53.64 393.814 53.2267 395.414 52.4C397.04 51.5467 398.614 50.32 400.134 48.72V41.16ZM377.334 23.88C381.947 19.5867 387.44 17.44 393.814 17.44C396.16 17.44 398.24 17.8267 400.054 18.6C401.894 19.3467 403.427 20.4133 404.654 21.8C405.907 23.1867 406.854 24.84 407.494 26.76C408.16 28.6533 408.494 30.76 408.494 33.08V59H404.654C403.827 59 403.2 58.88 402.774 58.64C402.347 58.3733 401.987 57.8533 401.694 57.08L400.854 53.76C399.814 54.6933 398.787 55.5333 397.774 56.28C396.76 57 395.707 57.6133 394.614 58.12C393.547 58.6267 392.387 59 391.134 59.24C389.907 59.5067 388.547 59.64 387.054 59.64C385.4 59.64 383.854 59.4133 382.414 58.96C381 58.5067 379.774 57.8267 378.734 56.92C377.694 55.9867 376.867 54.84 376.254 53.48C375.667 52.12 375.374 50.52 375.374 48.68C375.374 47.1067 375.787 45.5733 376.614 44.08C377.467 42.5867 378.854 41.2533 380.774 40.08C382.72 38.88 385.267 37.8933 388.414 37.12C391.587 36.3467 395.494 35.9067 400.134 35.8V33.08C400.134 30.1467 399.507 27.96 398.254 26.52C397 25.08 395.16 24.36 392.734 24.36C391.08 24.36 389.694 24.5733 388.574 25C387.454 25.4 386.48 25.84 385.654 26.32C384.827 26.8 384.094 27.2533 383.454 27.68C382.814 28.08 382.134 28.28 381.414 28.28C380.827 28.28 380.32 28.1333 379.894 27.84C379.494 27.52 379.16 27.1333 378.894 26.68L377.334 23.88ZM426.608 23.6C427.488 22.6933 428.395 21.88 429.328 21.16C430.288 20.4133 431.301 19.7733 432.368 19.24C433.435 18.7067 434.568 18.2933 435.768 18C436.968 17.7067 438.275 17.56 439.688 17.56C441.928 17.56 443.888 17.9333 445.568 18.68C447.275 19.4267 448.701 20.48 449.848 21.84C451.021 23.2 451.901 24.84 452.488 26.76C453.075 28.6533 453.368 30.7467 453.368 33.04V59H444.808V33.04C444.808 30.2933 444.168 28.16 442.888 26.64C441.635 25.12 439.715 24.36 437.128 24.36C435.208 24.36 433.421 24.8 431.768 25.68C430.141 26.56 428.608 27.76 427.168 29.28V59H418.568V18.2H423.768C424.941 18.2 425.688 18.7467 426.008 19.84L426.608 23.6ZM477.972 38.24C480.639 38.24 482.639 37.56 483.972 36.2C485.305 34.84 485.972 33.0667 485.972 30.88C485.972 28.64 485.305 26.8667 483.972 25.56C482.639 24.2533 480.639 23.6 477.972 23.6C475.332 23.6 473.332 24.2533 471.972 25.56C470.639 26.8667 469.972 28.64 469.972 30.88C469.972 31.9467 470.145 32.9333 470.492 33.84C470.839 34.7467 471.345 35.5333 472.012 36.2C472.679 36.84 473.505 37.3467 474.492 37.72C475.505 38.0667 476.665 38.24 477.972 38.24ZM489.932 61C489.932 60.0933 489.665 59.3733 489.132 58.84C488.625 58.28 487.932 57.8533 487.052 57.56C486.172 57.24 485.145 57.0133 483.972 56.88C482.799 56.72 481.545 56.6133 480.212 56.56C478.905 56.48 477.559 56.4133 476.172 56.36C474.812 56.28 473.492 56.1467 472.212 55.96C470.932 56.6267 469.879 57.4267 469.052 58.36C468.252 59.2933 467.852 60.3733 467.852 61.6C467.852 62.4 468.052 63.1467 468.452 63.84C468.879 64.5333 469.519 65.1333 470.372 65.64C471.252 66.1467 472.359 66.5467 473.692 66.84C475.052 67.1333 476.679 67.28 478.572 67.28C482.359 67.28 485.199 66.6933 487.092 65.52C488.985 64.3467 489.932 62.84 489.932 61ZM498.572 19.68V22.88C498.572 23.9467 497.932 24.6 496.652 24.84L492.572 25.52C493.265 27.0667 493.612 28.7867 493.612 30.68C493.612 32.68 493.212 34.4933 492.412 36.12C491.639 37.7467 490.559 39.1333 489.172 40.28C487.785 41.4267 486.132 42.3067 484.212 42.92C482.292 43.5333 480.212 43.84 477.972 43.84C477.119 43.84 476.279 43.8 475.452 43.72C474.652 43.6133 473.865 43.48 473.092 43.32C472.319 43.7733 471.745 44.2533 471.372 44.76C470.999 45.2667 470.812 45.7867 470.812 46.32C470.812 47.2 471.199 47.8533 471.972 48.28C472.745 48.7067 473.759 49.0133 475.012 49.2C476.292 49.3867 477.745 49.5067 479.372 49.56C480.999 49.6133 482.652 49.7067 484.332 49.84C486.012 49.9733 487.665 50.2 489.292 50.52C490.919 50.8133 492.359 51.32 493.612 52.04C494.892 52.7333 495.919 53.68 496.692 54.88C497.465 56.08 497.852 57.64 497.852 59.56C497.852 61.32 497.412 63.04 496.532 64.72C495.652 66.4 494.372 67.8933 492.692 69.2C491.039 70.5067 489.012 71.5467 486.612 72.32C484.212 73.12 481.479 73.52 478.412 73.52C475.372 73.52 472.719 73.2267 470.452 72.64C468.212 72.0533 466.332 71.2533 464.812 70.24C463.319 69.2533 462.199 68.1067 461.452 66.8C460.732 65.4933 460.372 64.1333 460.372 62.72C460.372 60.8 460.972 59.16 462.172 57.8C463.399 56.44 465.052 55.3733 467.132 54.6C466.012 54.0667 465.105 53.3333 464.412 52.4C463.745 51.4667 463.412 50.24 463.412 48.72C463.412 47.52 463.852 46.2667 464.732 44.96C465.612 43.6533 466.932 42.5467 468.692 41.64C466.665 40.52 465.065 39.04 463.892 37.2C462.719 35.3333 462.132 33.16 462.132 30.68C462.132 28.6533 462.519 26.8267 463.292 25.2C464.092 23.5733 465.199 22.1867 466.612 21.04C468.025 19.8933 469.692 19.0133 471.612 18.4C473.559 17.7867 475.679 17.48 477.972 17.48C481.492 17.48 484.559 18.2133 487.172 19.68H498.572ZM531.422 34C531.422 32.56 531.209 31.2267 530.782 30C530.382 28.7467 529.782 27.6667 528.982 26.76C528.182 25.8267 527.182 25.1067 525.982 24.6C524.809 24.0667 523.449 23.8 521.902 23.8C518.782 23.8 516.329 24.6933 514.542 26.48C512.755 28.2667 511.622 30.7733 511.142 34H531.422ZM510.902 39.28C511.009 41.6 511.369 43.6133 511.982 45.32C512.595 47 513.409 48.4 514.422 49.52C515.462 50.64 516.689 51.48 518.102 52.04C519.542 52.5733 521.142 52.84 522.902 52.84C524.582 52.84 526.035 52.6533 527.262 52.28C528.489 51.88 529.555 51.4533 530.462 51C531.369 50.52 532.142 50.0933 532.782 49.72C533.422 49.32 534.009 49.12 534.542 49.12C535.235 49.12 535.769 49.3867 536.142 49.92L538.582 53.08C537.569 54.28 536.422 55.2933 535.142 56.12C533.862 56.9467 532.502 57.6267 531.062 58.16C529.622 58.6667 528.142 59.0267 526.622 59.24C525.102 59.48 523.622 59.6 522.182 59.6C519.355 59.6 516.729 59.1333 514.302 58.2C511.902 57.24 509.809 55.84 508.022 54C506.262 52.16 504.875 49.88 503.862 47.16C502.875 44.44 502.382 41.3067 502.382 37.76C502.382 34.9333 502.822 32.2933 503.702 29.84C504.609 27.3867 505.889 25.2533 507.542 23.44C509.222 21.6267 511.249 20.2 513.622 19.16C516.022 18.0933 518.729 17.56 521.742 17.56C524.249 17.56 526.569 17.9733 528.702 18.8C530.835 19.6 532.675 20.7867 534.222 22.36C535.769 23.9333 536.969 25.8667 537.822 28.16C538.702 30.4267 539.142 33.0133 539.142 35.92C539.142 37.2533 538.995 38.1467 538.702 38.6C538.409 39.0533 537.875 39.28 537.102 39.28H510.902Z"/>
</mask>
<path d="M45.16 46.76L45.8957 46.0826L45.8911 46.0777L45.16 46.76ZM48.88 50.8L49.6494 51.4388L50.208 50.7659L49.6156 50.1226L48.88 50.8ZM40.24 57.36L40.6468 58.2735L40.6527 58.2709L40.24 57.36ZM16.56 57.48L16.1626 58.3977L16.1713 58.4014L16.56 57.48ZM7.88 51.4L7.14346 52.0764L7.14694 52.0802L7.88 51.4ZM2.32 42.08L1.37777 42.415L1.38 42.4212L2.32 42.08ZM2.44 18.32L1.50594 17.9629L1.50453 17.9666L2.44 18.32ZM8.24 9L7.51832 8.30778L7.51817 8.30793L8.24 9ZM17.2 2.92L16.8189 1.99546L16.8164 1.9965L17.2 2.92ZM39.72 2.8L39.3261 3.71919L39.3354 3.72307L39.72 2.8ZM48.04 8.16L48.8568 8.73698L49.3545 8.03234L48.7305 7.43664L48.04 8.16ZM44.96 12.52L45.7688 13.1082L45.7768 13.097L44.96 12.52ZM44.2 13.28L44.7882 14.0887L44.7882 14.0887L44.2 13.28ZM41.16 12.88L40.5549 13.6762L40.5726 13.6896L40.5908 13.7022L41.16 12.88ZM38.56 11.24L38.052 12.1014L38.0649 12.109L38.0781 12.1162L38.56 11.24ZM34.6 9.6L34.2935 10.5519L34.303 10.5549L34.3127 10.5578L34.6 9.6ZM21.12 10.28L21.5061 11.2024L21.12 10.28ZM11.32 21.2L10.3771 20.8667L10.3742 20.8752L11.32 21.2ZM11.4 39.28L10.4591 39.6187L10.4602 39.6217L11.4 39.28ZM15.36 46L14.6215 46.6743L14.6264 46.6796L15.36 46ZM21.28 50.16L21.67 49.2392H21.67L21.28 50.16ZM32.88 51.36L33.0066 52.352L33.0155 52.3508L33.0243 52.3495L32.88 51.36ZM36.4 50.52L36.7304 51.4639L36.7408 51.4602L36.7511 51.4563L36.4 50.52ZM39.4 49.04L38.8785 48.1867L38.8678 48.1934L39.4 49.04ZM42.24 46.88L41.571 46.1367L41.5652 46.142L42.24 46.88ZM43.84 47.16C44.0457 47.16 44.2279 47.2269 44.429 47.4423L45.8911 46.0777C45.3455 45.4931 44.6477 45.16 43.84 45.16V47.16ZM44.4244 47.4374L48.1444 51.4774L49.6156 50.1226L45.8956 46.0826L44.4244 47.4374ZM48.1106 50.1612C45.8627 52.869 43.1055 54.9637 39.8273 56.4492L40.6527 58.2709C44.2012 56.663 47.204 54.3844 49.6494 51.4388L48.1106 50.1612ZM39.8332 56.4465C36.5775 57.8963 32.6431 58.64 28 58.64V60.64C32.8503 60.64 37.0758 59.8637 40.6468 58.2735L39.8332 56.4465ZM28 58.64C23.9019 58.64 20.2233 57.9401 16.9487 56.5586L16.1713 58.4014C19.7234 59.8999 23.6714 60.64 28 60.64V58.64ZM16.9574 56.5624C13.6919 55.1482 10.9145 53.2003 8.61306 50.7198L7.14694 52.0802C9.64549 54.773 12.6548 56.8785 16.1626 58.3976L16.9574 56.5624ZM8.61653 50.7236C6.3127 48.215 4.52524 45.2247 3.26 41.7388L1.38 42.4212C2.7281 46.1353 4.6473 49.3584 7.14347 52.0764L8.61653 50.7236ZM3.26221 41.745C2.0251 38.2656 1.4 34.4206 1.4 30.2H-0.6C-0.6 34.6194 0.0548968 38.6944 1.37779 42.415L3.26221 41.745ZM1.4 30.2C1.4 25.986 2.06304 22.1475 3.37547 18.6734L1.50453 17.9666C0.0969579 21.6925 -0.6 25.774 -0.6 30.2H1.4ZM3.37405 18.6771C4.71706 15.1646 6.5817 12.1746 8.96183 9.69207L7.51817 8.30793C4.9383 10.9988 2.93627 14.222 1.50595 17.9629L3.37405 18.6771ZM8.96168 9.69222C11.3693 7.18215 14.2396 5.23254 17.5836 3.84349L16.8164 1.9965C13.2271 3.48745 10.124 5.59118 7.51832 8.30778L8.96168 9.69222ZM17.5811 3.84453C20.9411 2.45948 24.6499 1.76 28.72 1.76V-0.240004C24.4167 -0.240004 20.4455 0.500515 16.8189 1.99547L17.5811 3.84453ZM28.72 1.76C32.7717 1.76 36.3 2.42224 39.3261 3.71914L40.1139 1.88085C36.7934 0.457752 32.9883 -0.240004 28.72 -0.240004V1.76ZM39.3354 3.72307C42.4299 5.01245 45.0976 6.73382 47.3495 8.88335L48.7305 7.43664C46.289 5.10618 43.4101 3.25422 40.1046 1.87692L39.3354 3.72307ZM47.2232 7.58302L44.1432 11.943L45.7768 13.097L48.8568 8.73698L47.2232 7.58302ZM44.1513 11.9318C43.9995 12.1406 43.8206 12.3195 43.6118 12.4713L44.7882 14.0887C45.1661 13.8139 45.4939 13.4861 45.7687 13.1082L44.1513 11.9318ZM43.6118 12.4713C43.5453 12.5196 43.377 12.6 43 12.6V14.6C43.6364 14.6 44.268 14.467 44.7882 14.0887L43.6118 12.4713ZM43 12.6C42.7571 12.6 42.3449 12.4841 41.7292 12.0578L40.5908 13.7022C41.3617 14.2359 42.1763 14.6 43 14.6V12.6ZM41.7651 12.0838C41.0462 11.5375 40.1341 10.9645 39.0419 10.3638L38.0781 12.1162C39.1192 12.6888 39.9404 13.2092 40.5549 13.6762L41.7651 12.0838ZM39.068 10.3786C37.9378 9.71214 36.5374 9.13719 34.8874 8.64217L34.3127 10.5578C35.8626 11.0228 37.1022 11.5412 38.052 12.1014L39.068 10.3786ZM34.9065 8.64814C33.2013 8.09899 31.1161 7.84 28.68 7.84V9.84C30.9906 9.84 32.852 10.0877 34.2935 10.5519L34.9065 8.64814ZM28.68 7.84C25.8147 7.84 23.1617 8.34124 20.7339 9.35756L21.5061 11.2024C23.6649 10.2988 26.052 9.84 28.68 9.84V7.84ZM20.7339 9.35756C18.3047 10.3744 16.209 11.8609 14.4562 13.8116L15.9438 15.1484C17.4977 13.4191 19.3487 12.1056 21.5061 11.2024L20.7339 9.35756ZM14.4562 13.8116C12.7044 15.7612 11.3485 18.1193 10.3772 20.8667L12.2628 21.5333C13.1582 19.0007 14.389 16.8788 15.9438 15.1484L14.4562 13.8116ZM10.3742 20.8752C9.42519 23.6385 8.96 26.7513 8.96 30.2H10.96C10.96 26.9287 11.4015 24.0415 12.2658 21.5248L10.3742 20.8752ZM8.96 30.2C8.96 33.6802 9.45321 36.8245 10.4591 39.6187L12.3409 38.9413C11.4268 36.4021 10.96 33.4931 10.96 30.2H8.96ZM10.4602 39.6217C11.4592 42.3691 12.8428 44.7261 14.6215 46.6743L16.0985 45.3257C14.5172 43.5939 13.2608 41.4709 12.3398 38.9383L10.4602 39.6217ZM14.6264 46.6796C16.4022 48.5963 18.4925 50.0654 20.89 51.0808L21.67 49.2392C19.5342 48.3346 17.6778 47.0304 16.0936 45.3204L14.6264 46.6796ZM20.89 51.0808C23.2875 52.0962 25.8611 52.6 28.6 52.6V50.6C26.1123 50.6 23.8058 50.1438 21.67 49.2392L20.89 51.0808ZM28.6 52.6C30.2318 52.6 31.702 52.5185 33.0066 52.352L32.7534 50.368C31.5513 50.5215 30.1682 50.6 28.6 50.6V52.6ZM33.0243 52.3495C34.3588 52.1549 35.5953 51.8611 36.7304 51.4639L36.0697 49.5761C35.0713 49.9256 33.9613 50.1917 32.7357 50.3705L33.0243 52.3495ZM36.7511 51.4563C37.8789 51.0334 38.9398 50.5104 39.9322 49.8866L38.8678 48.1934C37.9935 48.7429 37.0544 49.2066 36.0489 49.5837L36.7511 51.4563ZM39.9215 49.8933C40.9424 49.2694 41.9399 48.5094 42.9148 47.618L41.5652 46.142C40.6735 46.9573 39.7776 47.6373 38.8786 48.1867L39.9215 49.8933ZM42.909 47.6233C43.323 47.2507 43.6284 47.16 43.84 47.16V45.16C42.985 45.16 42.2237 45.5493 41.571 46.1367L42.909 47.6233ZM77.165 41.16H78.165V40.1246L77.1302 40.1606L77.165 41.16ZM69.405 41.92L69.5795 42.9047L69.5915 42.9024L69.405 41.92ZM64.285 43.4L64.6946 44.3123L64.7023 44.3088L64.7099 44.3052L64.285 43.4ZM61.445 45.52L60.6295 44.9413L60.6232 44.9501L60.6171 44.9592L61.445 45.52ZM61.045 50.72L60.124 51.1096L60.1332 51.1314L60.1435 51.1527L61.045 50.72ZM62.325 52.4L61.6774 53.1619L61.6977 53.1792L61.719 53.1954L62.325 52.4ZM64.245 53.36L63.9609 54.3188L63.9816 54.3249L64.0025 54.3301L64.245 53.36ZM72.445 52.4L72.904 53.2884L72.9096 53.2855L72.445 52.4ZM77.165 48.72L77.89 49.4088L78.165 49.1193V48.72H77.165ZM54.365 23.88L53.6837 23.148L53.1099 23.682L53.4914 24.3667L54.365 23.88ZM77.085 18.6L76.6927 19.5198L76.7008 19.5233L76.709 19.5266L77.085 18.6ZM81.685 21.8L80.936 22.4626L80.9431 22.4705L81.685 21.8ZM84.525 26.76L83.5763 27.0762L83.579 27.0842L83.5818 27.0921L84.525 26.76ZM85.525 59V60H86.525V59H85.525ZM79.805 58.64L79.275 59.488L79.2946 59.5002L79.3147 59.5116L79.805 58.64ZM78.725 57.08L77.7555 57.3253L77.7696 57.381L77.79 57.4347L78.725 57.08ZM77.885 53.76L78.8545 53.5147L78.4486 51.9106L77.2171 53.0158L77.885 53.76ZM74.805 56.28L75.3842 57.0952L75.3913 57.0902L75.3982 57.0851L74.805 56.28ZM71.645 58.12L71.2245 57.2126L71.2159 57.2167L71.645 58.12ZM68.165 59.24L67.9769 58.2578L67.9647 58.2602L67.9526 58.2628L68.165 59.24ZM59.445 58.96L59.1396 59.9122L59.1447 59.9138L59.445 58.96ZM55.765 56.92L55.0971 57.6642L55.1024 57.669L55.1079 57.6738L55.765 56.92ZM53.285 53.48L52.3668 53.8761L52.37 53.8836L52.3734 53.8911L53.285 53.48ZM53.645 44.08L52.7767 43.5838L52.7701 43.5957L53.645 44.08ZM57.805 40.08L58.3265 40.9333L58.3297 40.9313L57.805 40.08ZM65.445 37.12L65.2082 36.1484L65.2063 36.1489L65.445 37.12ZM77.165 35.8L77.188 36.7997L78.165 36.7773V35.8H77.165ZM75.285 26.52L74.5307 27.1765V27.1765L75.285 26.52ZM65.605 25L65.9413 25.9417L65.9512 25.9382L65.961 25.9345L65.605 25ZM62.685 26.32L62.1829 25.4552L62.685 26.32ZM60.485 27.68L61.015 28.528L61.0275 28.5202L61.0397 28.5121L60.485 27.68ZM56.925 27.84L56.3003 28.6209L56.3286 28.6435L56.3585 28.664L56.925 27.84ZM55.925 26.68L55.0514 27.1667L55.0571 27.1769L55.0631 27.187L55.925 26.68ZM77.1302 40.1606C74.0324 40.2684 71.3915 40.525 69.2185 40.9376L69.5915 42.9024C71.6319 42.515 74.1643 42.265 77.1998 42.1594L77.1302 40.1606ZM69.2305 40.9353C67.0746 41.3174 65.2747 41.8308 63.8601 42.4948L64.7099 44.3052C65.9087 43.7425 67.522 43.2693 69.5795 42.9047L69.2305 40.9353ZM63.8754 42.4877C62.4698 43.1188 61.3534 43.9213 60.6295 44.9413L62.2605 46.0987C62.71 45.4654 63.4868 44.8545 64.6946 44.3123L63.8754 42.4877ZM60.6171 44.9592C59.9464 45.9492 59.605 47.0508 59.605 48.24H61.605C61.605 47.4558 61.8236 46.7441 62.2729 46.0808L60.6171 44.9592ZM59.605 48.24C59.605 49.2985 59.7663 50.2642 60.124 51.1096L61.966 50.3304C61.737 49.7892 61.605 49.1015 61.605 48.24H59.605ZM60.1435 51.1527C60.5206 51.9384 61.0313 52.6128 61.6774 53.1619L62.9726 51.6381C62.552 51.2805 62.2094 50.8349 61.9465 50.2873L60.1435 51.1527ZM61.719 53.1954C62.3818 53.7004 63.1324 54.0733 63.9609 54.3188L64.5291 52.4012C63.9176 52.22 63.3882 51.9529 62.931 51.6046L61.719 53.1954ZM64.0025 54.3301C64.8388 54.5392 65.7347 54.64 66.685 54.64V52.64C65.8753 52.64 65.1445 52.5541 64.4875 52.3899L64.0025 54.3301ZM66.685 54.64C69.0465 54.64 71.1317 54.2041 72.904 53.2884L71.986 51.5116C70.5583 52.2492 68.8035 52.64 66.685 52.64V54.64ZM72.9096 53.2855C74.6505 52.3723 76.3093 51.0727 77.89 49.4088L76.44 48.0312C74.9807 49.5673 73.4928 50.7211 71.9805 51.5145L72.9096 53.2855ZM78.165 48.72V41.16H76.165V48.72H78.165ZM55.0463 24.612C59.4722 20.4931 64.7213 18.44 70.845 18.44V16.44C64.2221 16.44 58.4844 18.6803 53.6837 23.148L55.0463 24.612ZM70.845 18.44C73.0821 18.44 75.0247 18.8085 76.6927 19.5198L77.4773 17.6802C75.5187 16.8449 73.3013 16.44 70.845 16.44V18.44ZM76.709 19.5266C78.4166 20.2195 79.8189 21.1998 80.936 22.4626L82.434 21.1374C81.0977 19.6269 79.4334 18.4738 77.461 17.6734L76.709 19.5266ZM80.9431 22.4705C82.0963 23.7464 82.9764 25.2764 83.5763 27.0762L85.4737 26.4438C84.7936 24.4036 83.7803 22.6269 82.4269 21.1295L80.9431 22.4705ZM83.5818 27.0921C84.2055 28.8636 84.525 30.8558 84.525 33.08H86.525C86.525 30.6642 86.1778 28.4431 85.4682 26.4279L83.5818 27.0921ZM84.525 33.08V59H86.525V33.08H84.525ZM85.525 58H81.685V60H85.525V58ZM81.685 58C80.926 58 80.5021 57.8848 80.2953 57.7684L79.3147 59.5116C79.9612 59.8752 80.7907 60 81.685 60V58ZM80.335 57.792C80.1793 57.6947 79.9216 57.415 79.66 56.7253L77.79 57.4347C78.1151 58.2917 78.5774 59.052 79.275 59.488L80.335 57.792ZM79.6945 56.8347L78.8545 53.5147L76.9156 54.0053L77.7555 57.3253L79.6945 56.8347ZM77.2171 53.0158C76.1984 53.9299 75.1966 54.7493 74.2118 55.4749L75.3982 57.0851C76.44 56.3174 77.4916 55.4567 78.5529 54.5042L77.2171 53.0158ZM74.2258 55.4648C73.2609 56.1504 72.2605 56.7326 71.2245 57.2127L72.0655 59.0273C73.2161 58.4941 74.3225 57.8496 75.3842 57.0952L74.2258 55.4648ZM71.2159 57.2167C70.2318 57.6842 69.1536 58.0325 67.9769 58.2578L68.3531 60.2222C69.6831 59.9675 70.9248 59.5692 72.0741 59.0233L71.2159 57.2167ZM67.9526 58.2628C66.8074 58.5118 65.5199 58.64 64.085 58.64V60.64C65.6367 60.64 67.0693 60.5015 68.3774 60.2172L67.9526 58.2628ZM64.085 58.64C62.5239 58.64 61.0793 58.4261 59.7453 58.0061L59.1447 59.9138C60.6907 60.4005 62.3394 60.64 64.085 60.64V58.64ZM59.7504 58.0078C58.4567 57.5928 57.352 56.9769 56.4221 56.1662L55.1079 57.6738C56.258 58.6764 57.6067 59.4205 59.1396 59.9122L59.7504 58.0078ZM56.4329 56.1758C55.5033 55.3415 54.7567 54.3108 54.1966 53.0689L52.3734 53.8911C53.04 55.3692 53.9467 56.6318 55.0971 57.6642L56.4329 56.1758ZM54.2032 53.0839C53.6819 51.8754 53.405 50.4158 53.405 48.68H51.405C51.405 50.6242 51.7148 52.3646 52.3668 53.8761L54.2032 53.0839ZM53.405 48.68C53.405 47.2903 53.7681 45.9223 54.5199 44.5643L52.7701 43.5957C51.8685 45.2243 51.405 46.923 51.405 48.68H53.405ZM54.5132 44.5761C55.2611 43.2674 56.5073 42.045 58.3265 40.9333L57.2836 39.2267C55.2627 40.4617 53.7356 41.9059 52.7768 43.5839L54.5132 44.5761ZM58.3297 40.9313C60.1594 39.8034 62.5995 38.8491 65.6837 38.0911L65.2063 36.1489C61.9972 36.9376 59.3439 37.9566 57.2803 39.2287L58.3297 40.9313ZM65.6818 38.0916C68.7626 37.3408 72.5926 36.9054 77.188 36.7997L77.142 34.8003C72.4574 34.908 68.474 35.3526 65.2082 36.1484L65.6818 38.0916ZM78.165 35.8V33.08H76.165V35.8H78.165ZM78.165 33.08C78.165 30.0296 77.517 27.5613 76.0393 25.8635L74.5307 27.1765C75.5596 28.3587 76.165 30.2638 76.165 33.08H78.165ZM76.0393 25.8635C74.547 24.1489 72.3967 23.36 69.765 23.36V25.36C71.9867 25.36 73.5164 26.0111 74.5307 27.1765L76.0393 25.8635ZM69.765 23.36C68.0329 23.36 66.5169 23.5825 65.249 24.0655L65.961 25.9345C66.9331 25.5642 68.1904 25.36 69.765 25.36V23.36ZM65.2687 24.0583C64.1044 24.4741 63.0733 24.9382 62.1829 25.4552L63.1871 27.1848C63.9501 26.7418 64.8656 26.3259 65.9413 25.9417L65.2687 24.0583ZM62.1829 25.4552C61.3424 25.9432 60.591 26.4075 59.9303 26.8479L61.0397 28.5121C61.659 28.0992 62.3742 27.6568 63.1871 27.1848L62.1829 25.4552ZM59.955 26.832C59.4659 27.1377 58.9683 27.28 58.445 27.28V29.28C59.3617 29.28 60.2241 29.0223 61.015 28.528L59.955 26.832ZM58.445 27.28C58.0327 27.28 57.7299 27.1798 57.4915 27.016L56.3585 28.664C56.9734 29.0868 57.6839 29.28 58.445 29.28V27.28ZM57.5497 27.0591C57.2473 26.8172 56.9935 26.5242 56.7869 26.173L55.0631 27.187C55.3898 27.7425 55.8027 28.2227 56.3003 28.6209L57.5497 27.0591ZM56.7986 26.1933L55.2386 23.3933L53.4914 24.3667L55.0514 27.1667L56.7986 26.1933ZM104.199 48.76H103.199V49.1024L103.409 49.373L104.199 48.76ZM108.119 52.04L107.707 52.951L107.717 52.9556L107.728 52.96L108.119 52.04ZM120.719 49.28L119.928 48.669L119.924 48.6745L120.719 49.28ZM122.919 31.92L121.947 32.1523L121.948 32.1556L122.919 31.92ZM121.079 27.56L120.266 28.1412V28.1412L121.079 27.56ZM118.159 25.12L118.564 24.2053L118.159 25.12ZM108.599 25.8L109.11 26.6601L109.114 26.6575L108.599 25.8ZM104.199 29.84L103.408 29.2285L103.199 29.4987V29.84H104.199ZM103.759 24.12L102.773 24.2859L103.129 26.3995L104.52 24.7691L103.759 24.12ZM109.559 19.28L109.07 18.4078L109.066 18.4104L109.559 19.28ZM123.399 18.84L122.952 19.7345L122.962 19.7395L123.399 18.84ZM131.279 29.4L130.315 29.6656L130.319 29.6773L131.279 29.4ZM131.159 46.76L130.206 46.4584L130.204 46.4645L131.159 46.76ZM127.679 53.52L128.459 54.146L128.463 54.1407L127.679 53.52ZM122.159 58L122.602 58.8967L122.611 58.8922L122.159 58ZM108.719 58.44L108.296 59.3458L108.301 59.3484L108.719 58.44ZM104.199 55.24L104.906 54.5329L103.199 52.8258V55.24H104.199ZM104.199 72.56V73.56H105.199V72.56H104.199ZM95.5994 72.56H94.5994V73.56H95.5994V72.56ZM95.5994 18.2V17.2H94.5994V18.2H95.5994ZM103.039 19.84L104.026 19.6741L104.016 19.6158L103.999 19.5591L103.039 19.84ZM103.409 49.373C104.684 51.0153 106.112 52.2285 107.707 52.951L108.532 51.129C107.301 50.5715 106.115 49.598 104.989 48.147L103.409 49.373ZM107.728 52.96C109.304 53.6315 111.026 53.96 112.879 53.96V51.96C111.266 51.96 109.815 51.6751 108.511 51.12L107.728 52.96ZM112.879 53.96C116.519 53.96 119.441 52.6121 121.515 49.8855L119.924 48.6745C118.265 50.8545 115.959 51.96 112.879 51.96V53.96ZM121.511 49.891C123.597 47.1882 124.559 43.2771 124.559 38.32H122.559C122.559 43.0696 121.629 46.4652 119.928 48.669L121.511 49.891ZM124.559 38.32C124.559 35.7619 124.342 33.5446 123.891 31.6844L121.948 32.1556C122.35 33.8154 122.559 35.8648 122.559 38.32H124.559ZM123.892 31.6877C123.445 29.8152 122.789 28.2325 121.893 26.9788L120.266 28.1412C120.97 29.1275 121.541 30.4515 121.947 32.1523L123.892 31.6877ZM121.893 26.9788C120.999 25.7276 119.89 24.7914 118.564 24.2053L117.755 26.0347C118.722 26.4619 119.559 27.1524 120.266 28.1412L121.893 26.9788ZM118.564 24.2053C117.272 23.6346 115.838 23.36 114.279 23.36V25.36C115.601 25.36 116.753 25.592 117.755 26.0347L118.564 24.2053ZM114.279 23.36C111.943 23.36 109.865 23.8743 108.085 24.9425L109.114 26.6575C110.533 25.8057 112.242 25.36 114.279 25.36V23.36ZM108.089 24.9399C106.387 25.9499 104.829 27.3896 103.408 29.2285L104.991 30.4514C106.29 28.7704 107.665 27.5167 109.11 26.6601L108.089 24.9399ZM103.199 29.84V48.76H105.199V29.84H103.199ZM104.52 24.7691C106.156 22.8523 108 21.3155 110.053 20.1496L109.066 18.4104C106.799 19.6978 104.776 21.3877 102.999 23.4709L104.52 24.7691ZM110.049 20.1521C112.065 19.0211 114.425 18.44 117.159 18.44V16.44C114.134 16.44 111.427 17.0856 109.07 18.4079L110.049 20.1521ZM117.159 18.44C119.313 18.44 121.238 18.8772 122.952 19.7344L123.847 17.9456C121.828 16.9362 119.592 16.44 117.159 16.44V18.44ZM122.962 19.7395C124.678 20.573 126.158 21.8012 127.402 23.4439L128.996 22.2361C127.574 20.3588 125.854 18.9203 123.836 17.9405L122.962 19.7395ZM127.402 23.4439C128.644 25.0826 129.622 27.1476 130.315 29.6656L132.243 29.1344C131.497 26.4257 130.422 24.1174 128.996 22.2361L127.402 23.4439ZM130.319 29.6773C131.034 32.1548 131.399 35.0317 131.399 38.32H133.399C133.399 34.8883 133.018 31.8186 132.24 29.1227L130.319 29.6773ZM131.399 38.32C131.399 41.2411 130.999 43.9518 130.206 46.4584L132.113 47.0616C132.973 44.3415 133.399 41.4256 133.399 38.32H131.399ZM130.204 46.4645C129.437 48.9456 128.331 51.0859 126.895 52.8993L128.463 54.1407C130.068 52.1141 131.282 49.7477 132.115 47.0555L130.204 46.4645ZM126.9 52.894C125.468 54.6765 123.74 56.079 121.708 57.1078L122.611 58.8922C124.898 57.7344 126.85 56.1501 128.459 54.146L126.9 52.894ZM121.717 57.1034C119.711 58.0937 117.426 58.6 114.839 58.6V60.6C117.693 60.6 120.288 60.0396 122.602 58.8966L121.717 57.1034ZM114.839 58.6C112.542 58.6 110.653 58.2294 109.138 57.5316L108.301 59.3484C110.145 60.1972 112.336 60.6 114.839 60.6V58.6ZM109.143 57.5342C107.601 56.8127 106.189 55.8151 104.906 54.5329L103.492 55.9471C104.93 57.3849 106.531 58.5206 108.296 59.3458L109.143 57.5342ZM103.199 55.24V72.56H105.199V55.24H103.199ZM104.199 71.56H95.5994V73.56H104.199V71.56ZM96.5994 72.56V18.2H94.5994V72.56H96.5994ZM95.5994 19.2H100.799V17.2H95.5994V19.2ZM100.799 19.2C101.231 19.2 101.488 19.2991 101.649 19.4169C101.807 19.5325 101.967 19.7355 102.08 20.1209L103.999 19.5591C103.792 18.8512 103.419 18.2341 102.83 17.8031C102.244 17.3742 101.541 17.2 100.799 17.2V19.2ZM102.053 20.0059L102.773 24.2859L104.746 23.9541L104.026 19.6741L102.053 20.0059ZM162.556 41.16H163.556V40.1246L162.521 40.1606L162.556 41.16ZM154.796 41.92L154.97 42.9047L154.982 42.9024L154.796 41.92ZM149.676 43.4L150.085 44.3123L150.093 44.3088L150.101 44.3052L149.676 43.4ZM146.836 45.52L146.02 44.9413L146.014 44.9501L146.008 44.9592L146.836 45.52ZM146.436 50.72L145.515 51.1096L145.524 51.1314L145.534 51.1527L146.436 50.72ZM147.716 52.4L147.068 53.1619L147.088 53.1792L147.11 53.1954L147.716 52.4ZM149.636 53.36L149.352 54.3188L149.372 54.3249L149.393 54.3301L149.636 53.36ZM157.836 52.4L158.295 53.2884L158.3 53.2855L157.836 52.4ZM162.556 48.72L163.281 49.4088L163.556 49.1193V48.72H162.556ZM139.756 23.88L139.074 23.148L138.501 23.682L138.882 24.3667L139.756 23.88ZM162.476 18.6L162.083 19.5198L162.091 19.5233L162.1 19.5266L162.476 18.6ZM167.076 21.8L166.327 22.4626L166.334 22.4705L167.076 21.8ZM169.916 26.76L168.967 27.0762L168.97 27.0842L168.972 27.0921L169.916 26.76ZM170.916 59V60H171.916V59H170.916ZM165.196 58.64L164.666 59.488L164.685 59.5002L164.705 59.5116L165.196 58.64ZM164.116 57.08L163.146 57.3253L163.16 57.381L163.181 57.4347L164.116 57.08ZM163.276 53.76L164.245 53.5147L163.839 51.9106L162.608 53.0158L163.276 53.76ZM160.196 56.28L160.775 57.0952L160.782 57.0902L160.789 57.0851L160.196 56.28ZM157.036 58.12L156.615 57.2126L156.607 57.2167L157.036 58.12ZM153.556 59.24L153.368 58.2578L153.355 58.2602L153.343 58.2628L153.556 59.24ZM144.836 58.96L144.53 59.9122L144.535 59.9138L144.836 58.96ZM141.156 56.92L140.488 57.6642L140.493 57.669L140.498 57.6738L141.156 56.92ZM138.676 53.48L137.757 53.8761L137.761 53.8836L137.764 53.8911L138.676 53.48ZM139.036 44.08L138.167 43.5838L138.161 43.5957L139.036 44.08ZM143.196 40.08L143.717 40.9333L143.72 40.9313L143.196 40.08ZM150.836 37.12L150.599 36.1484L150.597 36.1489L150.836 37.12ZM162.556 35.8L162.579 36.7997L163.556 36.7773V35.8H162.556ZM160.676 26.52L159.921 27.1765V27.1765L160.676 26.52ZM150.996 25L151.332 25.9417L151.342 25.9382L151.352 25.9345L150.996 25ZM148.076 26.32L147.573 25.4552L148.076 26.32ZM145.876 27.68L146.406 28.528L146.418 28.5202L146.43 28.5121L145.876 27.68ZM142.316 27.84L141.691 28.6209L141.719 28.6435L141.749 28.664L142.316 27.84ZM141.316 26.68L140.442 27.1667L140.448 27.1769L140.454 27.187L141.316 26.68ZM162.521 40.1606C159.423 40.2684 156.782 40.525 154.609 40.9376L154.982 42.9024C157.022 42.515 159.555 42.265 162.59 42.1594L162.521 40.1606ZM154.621 40.9353C152.465 41.3174 150.665 41.8308 149.251 42.4948L150.101 44.3052C151.299 43.7425 152.913 43.2693 154.97 42.9047L154.621 40.9353ZM149.266 42.4877C147.86 43.1188 146.744 43.9213 146.02 44.9413L147.651 46.0987C148.101 45.4654 148.877 44.8545 150.085 44.3123L149.266 42.4877ZM146.008 44.9592C145.337 45.9492 144.996 47.0508 144.996 48.24H146.996C146.996 47.4558 147.214 46.7441 147.664 46.0808L146.008 44.9592ZM144.996 48.24C144.996 49.2985 145.157 50.2642 145.515 51.1096L147.357 50.3304C147.128 49.7892 146.996 49.1015 146.996 48.24H144.996ZM145.534 51.1527C145.911 51.9384 146.422 52.6128 147.068 53.1619L148.363 51.6381C147.943 51.2805 147.6 50.8349 147.337 50.2873L145.534 51.1527ZM147.11 53.1954C147.772 53.7004 148.523 54.0733 149.352 54.3188L149.92 52.4012C149.308 52.22 148.779 51.9529 148.322 51.6046L147.11 53.1954ZM149.393 54.3301C150.229 54.5392 151.125 54.64 152.076 54.64V52.64C151.266 52.64 150.535 52.5541 149.878 52.3899L149.393 54.3301ZM152.076 54.64C154.437 54.64 156.522 54.2041 158.295 53.2884L157.377 51.5116C155.949 52.2492 154.194 52.64 152.076 52.64V54.64ZM158.3 53.2855C160.041 52.3723 161.7 51.0727 163.281 49.4088L161.831 48.0312C160.371 49.5673 158.883 50.7211 157.371 51.5145L158.3 53.2855ZM163.556 48.72V41.16H161.556V48.72H163.556ZM140.437 24.612C144.863 20.4931 150.112 18.44 156.236 18.44V16.44C149.613 16.44 143.875 18.6803 139.074 23.148L140.437 24.612ZM156.236 18.44C158.473 18.44 160.415 18.8085 162.083 19.5198L162.868 17.6802C160.909 16.8449 158.692 16.44 156.236 16.44V18.44ZM162.1 19.5266C163.807 20.2195 165.21 21.1998 166.327 22.4626L167.825 21.1374C166.488 19.6269 164.824 18.4738 162.852 17.6734L162.1 19.5266ZM166.334 22.4705C167.487 23.7464 168.367 25.2764 168.967 27.0762L170.864 26.4438C170.184 24.4036 169.171 22.6269 167.818 21.1295L166.334 22.4705ZM168.972 27.0921C169.596 28.8636 169.916 30.8558 169.916 33.08H171.916C171.916 30.6642 171.568 28.4431 170.859 26.4279L168.972 27.0921ZM169.916 33.08V59H171.916V33.08H169.916ZM170.916 58H167.076V60H170.916V58ZM167.076 58C166.317 58 165.893 57.8848 165.686 57.7684L164.705 59.5116C165.352 59.8752 166.181 60 167.076 60V58ZM165.726 57.792C165.57 57.6947 165.312 57.415 165.051 56.7253L163.181 57.4347C163.506 58.2917 163.968 59.052 164.666 59.488L165.726 57.792ZM165.085 56.8347L164.245 53.5147L162.306 54.0053L163.146 57.3253L165.085 56.8347ZM162.608 53.0158C161.589 53.9299 160.587 54.7493 159.602 55.4749L160.789 57.0851C161.831 56.3174 162.882 55.4567 163.944 54.5042L162.608 53.0158ZM159.616 55.4648C158.651 56.1504 157.651 56.7326 156.615 57.2127L157.456 59.0273C158.607 58.4941 159.713 57.8496 160.775 57.0952L159.616 55.4648ZM156.607 57.2167C155.622 57.6842 154.544 58.0325 153.368 58.2578L153.744 60.2222C155.074 59.9675 156.315 59.5692 157.465 59.0233L156.607 57.2167ZM153.343 58.2628C152.198 58.5118 150.911 58.64 149.476 58.64V60.64C151.027 60.64 152.46 60.5015 153.768 60.2172L153.343 58.2628ZM149.476 58.64C147.915 58.64 146.47 58.4261 145.136 58.0061L144.535 59.9138C146.081 60.4005 147.73 60.64 149.476 60.64V58.64ZM145.141 58.0078C143.847 57.5928 142.743 56.9769 141.813 56.1662L140.498 57.6738C141.649 58.6764 142.997 59.4205 144.53 59.9122L145.141 58.0078ZM141.824 56.1758C140.894 55.3415 140.147 54.3108 139.587 53.0689L137.764 53.8911C138.431 55.3692 139.337 56.6318 140.488 57.6642L141.824 56.1758ZM139.594 53.0839C139.073 51.8754 138.796 50.4158 138.796 48.68H136.796C136.796 50.6242 137.105 52.3646 137.757 53.8761L139.594 53.0839ZM138.796 48.68C138.796 47.2903 139.159 45.9223 139.911 44.5643L138.161 43.5957C137.259 45.2243 136.796 46.923 136.796 48.68H138.796ZM139.904 44.5761C140.652 43.2674 141.898 42.045 143.717 40.9333L142.674 39.2267C140.653 40.4617 139.126 41.9059 138.167 43.5839L139.904 44.5761ZM143.72 40.9313C145.55 39.8034 147.99 38.8491 151.074 38.0911L150.597 36.1489C147.388 36.9376 144.735 37.9566 142.671 39.2287L143.72 40.9313ZM151.072 38.0916C154.153 37.3408 157.983 36.9054 162.579 36.7997L162.533 34.8003C157.848 34.908 153.865 35.3526 150.599 36.1484L151.072 38.0916ZM163.556 35.8V33.08H161.556V35.8H163.556ZM163.556 33.08C163.556 30.0296 162.908 27.5613 161.43 25.8635L159.921 27.1765C160.95 28.3587 161.556 30.2638 161.556 33.08H163.556ZM161.43 25.8635C159.938 24.1489 157.787 23.36 155.156 23.36V25.36C157.377 25.36 158.907 26.0111 159.921 27.1765L161.43 25.8635ZM155.156 23.36C153.424 23.36 151.908 23.5825 150.64 24.0655L151.352 25.9345C152.324 25.5642 153.581 25.36 155.156 25.36V23.36ZM150.659 24.0583C149.495 24.4741 148.464 24.9382 147.573 25.4552L148.578 27.1848C149.341 26.7418 150.256 26.3259 151.332 25.9417L150.659 24.0583ZM147.573 25.4552C146.733 25.9432 145.982 26.4075 145.321 26.8479L146.43 28.5121C147.05 28.0992 147.765 27.6568 148.578 27.1848L147.573 25.4552ZM145.346 26.832C144.857 27.1377 144.359 27.28 143.836 27.28V29.28C144.752 29.28 145.615 29.0223 146.406 28.528L145.346 26.832ZM143.836 27.28C143.423 27.28 143.121 27.1798 142.882 27.016L141.749 28.664C142.364 29.0868 143.075 29.28 143.836 29.28V27.28ZM142.94 27.0591C142.638 26.8172 142.384 26.5242 142.178 26.173L140.454 27.187C140.78 27.7425 141.193 28.2227 141.691 28.6209L142.94 27.0591ZM142.189 26.1933L140.629 23.3933L138.882 24.3667L140.442 27.1667L142.189 26.1933ZM209.83 26.2L210.623 26.8097L210.63 26.8L210.637 26.79L209.83 26.2ZM209.07 27L209.684 27.7894L209.07 27ZM206.59 26.8L206.035 27.632L206.046 27.6389L206.056 27.6455L206.59 26.8ZM204.83 25.76L204.316 26.6175L204.335 26.6295L204.356 26.6405L204.83 25.76ZM202.39 24.68L202.074 25.6287L202.39 24.68ZM193.87 25.2L193.443 24.2955L193.437 24.2987L193.87 25.2ZM190.35 28.08L189.556 27.4719L189.554 27.4745L190.35 28.08ZM188.23 32.6L187.264 32.3405L187.262 32.3506L188.23 32.6ZM190.47 49.2L189.674 49.8056L189.682 49.8163L190.47 49.2ZM193.91 52L193.477 52.9016L193.484 52.9048L193.91 52ZM205.11 51.04L204.541 50.2178L205.11 51.04ZM206.87 49.72L206.25 48.9351L206.24 48.9433L206.23 48.9518L206.87 49.72ZM210.07 49.92L209.251 50.4935L209.264 50.5126L209.279 50.5312L210.07 49.92ZM212.51 53.08L213.282 53.7151L213.789 53.0996L213.302 52.4688L212.51 53.08ZM209.23 56.12L208.663 55.2965L209.23 56.12ZM205.43 58.16L205.785 59.0948L205.793 59.0917L205.801 59.0885L205.43 58.16ZM201.27 59.24L201.123 58.2508L201.115 58.2521L201.106 58.2536L201.27 59.24ZM189.79 58.2L189.388 59.1156L189.395 59.1186L189.401 59.1214L189.79 58.2ZM184.03 54.08L183.286 54.7478L183.291 54.7535L183.296 54.7592L184.03 54.08ZM180.15 47.48L179.208 47.8164L179.212 47.8279L180.15 47.48ZM180.03 30.2L180.979 30.5162L180.98 30.5133L180.03 30.2ZM183.75 23.52L183.001 22.8569L182.996 22.863L183.75 23.52ZM189.87 19.16L190.264 20.0792L190.272 20.0755L189.87 19.16ZM206.07 19L205.676 19.9192L205.68 19.9208L206.07 19ZM212.11 23.08L212.917 23.67L213.423 22.9785L212.817 22.3729L212.11 23.08ZM209.037 25.5903C208.802 25.8964 208.607 26.0933 208.456 26.2106L209.684 27.7894C210.013 27.5334 210.325 27.1969 210.623 26.8097L209.037 25.5903ZM208.456 26.2106C208.459 26.2081 208.365 26.28 208.03 26.28V28.28C208.601 28.28 209.201 28.1652 209.684 27.7894L208.456 26.2106ZM208.03 26.28C207.817 26.28 207.521 26.2053 207.124 25.9545L206.056 27.6455C206.672 28.0347 207.336 28.28 208.03 28.28V26.28ZM207.145 25.9679C206.631 25.6256 206.016 25.2628 205.304 24.8795L204.356 26.6405C205.031 27.0039 205.589 27.3344 206.035 27.632L207.145 25.9679ZM205.344 24.9025C204.6 24.4557 203.716 24.0679 202.706 23.7313L202.074 25.6287C202.984 25.9321 203.727 26.2643 204.316 26.6175L205.344 24.9025ZM202.706 23.7313C201.611 23.3663 200.296 23.2 198.79 23.2V25.2C200.164 25.2 201.249 25.3537 202.074 25.6287L202.706 23.7313ZM198.79 23.2C196.804 23.2 195.014 23.5549 193.443 24.2956L194.297 26.1044C195.553 25.5118 197.043 25.2 198.79 25.2V23.2ZM193.437 24.2987C191.905 25.0353 190.609 26.0973 189.556 27.4719L191.144 28.6881C192.011 27.5561 193.062 26.698 194.303 26.1012L193.437 24.2987ZM189.554 27.4745C188.528 28.8228 187.771 30.4531 187.264 32.3405L189.196 32.8595C189.649 31.1735 190.305 29.7905 191.146 28.6855L189.554 27.4745ZM187.262 32.3506C186.783 34.2075 186.55 36.2801 186.55 38.56H188.55C188.55 36.4133 188.77 34.5125 189.198 32.8494L187.262 32.3506ZM186.55 38.56C186.55 40.9249 186.811 43.0595 187.348 44.9528L189.272 44.4072C188.796 42.7272 188.55 40.7818 188.55 38.56H186.55ZM187.348 44.9528C187.882 46.8358 188.651 48.4612 189.674 49.8055L191.266 48.5945C190.422 47.4854 189.751 46.0975 189.272 44.4072L187.348 44.9528ZM189.682 49.8163C190.732 51.1574 191.998 52.1914 193.477 52.9015L194.343 51.0985C193.155 50.5285 192.128 49.6959 191.258 48.5837L189.682 49.8163ZM193.484 52.9048C194.992 53.6145 196.66 53.96 198.47 53.96V51.96C196.92 51.96 195.548 51.6655 194.336 51.0952L193.484 52.9048ZM198.47 53.96C200.192 53.96 201.673 53.7533 202.869 53.2933L202.151 51.4267C201.267 51.7667 200.054 51.96 198.47 51.96V53.96ZM202.869 53.2933C203.961 52.8733 204.903 52.3993 205.679 51.8622L204.541 50.2178C203.93 50.6407 203.139 51.0467 202.151 51.4267L202.869 53.2933ZM205.679 51.8622C206.389 51.3707 207.001 50.9125 207.51 50.4882L206.23 48.9518C205.779 49.3275 205.217 49.7493 204.541 50.2178L205.679 51.8622ZM207.49 50.5049C207.848 50.2219 208.168 50.12 208.47 50.12V48.12C207.652 48.12 206.905 48.4181 206.25 48.9351L207.49 50.5049ZM208.47 50.12C208.862 50.12 209.078 50.2473 209.251 50.4935L210.889 49.3465C210.315 48.526 209.465 48.12 208.47 48.12V50.12ZM209.279 50.5312L211.718 53.6912L213.302 52.4688L210.862 49.3088L209.279 50.5312ZM211.738 52.4449C210.806 53.5776 209.781 54.5261 208.663 55.2965L209.797 56.9435C211.079 56.0605 212.24 54.9824 213.282 53.7151L211.738 52.4449ZM208.663 55.2965C207.523 56.0816 206.322 56.7262 205.059 57.2315L205.801 59.0885C207.205 58.5271 208.537 57.8117 209.797 56.9435L208.663 55.2965ZM205.075 57.2252C203.81 57.7057 202.494 58.0478 201.123 58.2508L201.417 60.2292C202.926 60.0055 204.383 59.6276 205.785 59.0948L205.075 57.2252ZM201.106 58.2536C199.72 58.4845 198.322 58.6 196.91 58.6V60.6C198.431 60.6 199.94 60.4755 201.434 60.2264L201.106 58.2536ZM196.91 58.6C194.503 58.6 192.262 58.1572 190.179 57.2786L189.401 59.1214C191.744 60.1094 194.251 60.6 196.91 60.6V58.6ZM190.192 57.2844C188.134 56.3806 186.326 55.0887 184.764 53.4008L183.296 54.7592C185.041 56.6446 187.073 58.0994 189.388 59.1156L190.192 57.2844ZM184.774 53.4122C183.242 51.704 182.01 49.6164 181.088 47.1321L179.212 47.8279C180.21 50.5169 181.565 52.8293 183.286 54.7478L184.774 53.4122ZM181.092 47.1437C180.204 44.6575 179.75 41.8011 179.75 38.56H177.75C177.75 41.9856 178.229 45.0758 179.208 47.8163L181.092 47.1437ZM179.75 38.56C179.75 35.6417 180.163 32.9631 180.979 30.5162L179.081 29.8838C178.19 32.5569 177.75 35.4516 177.75 38.56H179.75ZM180.98 30.5133C181.795 28.0404 182.973 25.9336 184.504 24.177L182.996 22.863C181.274 24.8397 179.971 27.1863 179.08 29.8867L180.98 30.5133ZM184.499 24.183C186.048 22.4333 187.965 21.0645 190.264 20.0791L189.476 18.2409C186.922 19.3355 184.758 20.8733 183.001 22.857L184.499 24.183ZM190.272 20.0755C192.55 19.0744 195.208 18.56 198.27 18.56V16.56C194.985 16.56 192.044 17.1123 189.468 18.2445L190.272 20.0755ZM198.27 18.56C201.123 18.56 203.584 19.0226 205.676 19.9191L206.464 18.0809C204.076 17.0574 201.337 16.56 198.27 16.56V18.56ZM205.68 19.9208C207.827 20.8301 209.733 22.117 211.403 23.7871L212.817 22.3729C210.967 20.523 208.846 19.0899 206.46 18.0792L205.68 19.9208ZM211.303 22.49L209.023 25.61L210.637 26.79L212.917 23.67L211.303 22.49ZM228.387 18.2H229.387V17.2H228.387V18.2ZM228.387 59V60H229.387V59H228.387ZM219.788 59H218.788V60H219.788V59ZM219.788 18.2V17.2H218.788V18.2H219.788ZM229.348 8.08L228.44 7.66094L228.433 7.67555L228.427 7.69036L229.348 8.08ZM228.107 9.91999L228.796 10.645L228.806 10.6362L228.815 10.6271L228.107 9.91999ZM226.228 11.16L226.617 12.081L226.625 12.0775L226.634 12.0738L226.228 11.16ZM221.788 11.16L221.355 12.0615L221.376 12.0718L221.398 12.081L221.788 11.16ZM220.027 9.91999L219.303 10.6087L219.311 10.618L219.32 10.6271L220.027 9.91999ZM218.788 8.08L217.867 8.46964L217.873 8.48446L217.88 8.49906L218.788 8.08ZM218.788 3.64L217.88 3.22094L217.873 3.23554L217.867 3.25036L218.788 3.64ZM220.027 1.84L220.735 2.54711L220.744 2.53804L220.753 2.52875L220.027 1.84ZM221.788 0.599998L222.19 1.51531L222.198 1.51171L222.207 1.50796L221.788 0.599998ZM226.228 0.599998L225.808 1.50796L225.829 1.5175L225.85 1.52609L226.228 0.599998ZM228.107 1.84L227.4 2.5471L227.409 2.55617L227.419 2.565L228.107 1.84ZM229.348 3.64L228.427 4.02964L228.433 4.04445L228.44 4.05906L229.348 3.64ZM227.387 18.2V59H229.387V18.2H227.387ZM228.387 58H219.788V60H228.387V58ZM220.788 59V18.2H218.788V59H220.788ZM219.788 19.2H228.387V17.2H219.788V19.2ZM228.827 5.88C228.827 6.51053 228.698 7.1007 228.44 7.66094L230.255 8.49906C230.637 7.67263 230.827 6.79613 230.827 5.88H228.827ZM228.427 7.69036C228.183 8.26485 227.843 8.77044 227.4 9.21289L228.815 10.6271C229.439 10.0029 229.925 9.28181 230.268 8.46964L228.427 7.69036ZM227.419 9.195C226.974 9.61764 226.445 9.96923 225.821 10.2462L226.634 12.0738C227.45 11.7108 228.174 11.2357 228.796 10.645L227.419 9.195ZM225.838 10.239C225.275 10.477 224.662 10.6 223.988 10.6V12.6C224.913 12.6 225.793 12.4297 226.617 12.081L225.838 10.239ZM223.988 10.6C223.344 10.6 222.744 10.4788 222.177 10.239L221.398 12.081C222.218 12.4279 223.084 12.6 223.988 12.6V10.6ZM222.22 10.2585C221.652 9.98574 221.159 9.63718 220.735 9.21289L219.32 10.6271C219.909 11.2162 220.59 11.6943 221.355 12.0615L222.22 10.2585ZM220.753 9.23125C220.324 8.78019 219.971 8.25879 219.695 7.66094L217.88 8.49906C218.244 9.28787 218.718 9.99313 219.303 10.6087L220.753 9.23125ZM219.708 7.69036C219.469 7.1237 219.348 6.5232 219.348 5.88H217.348C217.348 6.78346 217.52 7.64963 217.867 8.46964L219.708 7.69036ZM219.348 5.88C219.348 5.20535 219.471 4.59209 219.708 4.02964L217.867 3.25036C217.518 4.07458 217.348 4.95465 217.348 5.88H219.348ZM219.695 4.05906C219.969 3.46575 220.317 2.96501 220.735 2.54711L219.32 1.13289C218.725 1.72832 218.246 2.42758 217.88 3.22094L219.695 4.05906ZM220.753 2.52875C221.169 2.09057 221.646 1.75469 222.19 1.51531L221.385 -0.315317C220.595 0.0319672 219.9 0.52276 219.303 1.15125L220.753 2.52875ZM222.207 1.50796C222.767 1.24938 223.357 1.12 223.988 1.12V-0.880005C223.071 -0.880005 222.195 -0.689392 221.368 -0.307961L222.207 1.50796ZM223.988 1.12C224.65 1.12 225.253 1.25148 225.808 1.50796L226.647 -0.307961C225.816 -0.69149 224.925 -0.880005 223.988 -0.880005V1.12ZM225.85 1.52609C226.451 1.77072 226.964 2.11094 227.4 2.5471L228.815 1.13289C228.184 0.502392 227.444 0.0159416 226.605 -0.326096L225.85 1.52609ZM227.419 2.565C227.85 2.97478 228.185 3.45982 228.427 4.02964L230.268 3.25036C229.923 2.43351 229.432 1.71855 228.796 1.115L227.419 2.565ZM228.44 4.05906C228.696 4.61475 228.827 5.21764 228.827 5.88H230.827C230.827 4.94236 230.639 4.05191 230.255 3.22094L228.44 4.05906ZM244.433 56.8L243.706 57.4866L243.711 57.4918L243.716 57.4969L244.433 56.8ZM241.713 24.96H242.713V23.96H241.713V24.96ZM235.993 24.52L235.315 25.2548L235.331 25.2694L235.347 25.2834L235.993 24.52ZM235.473 19.64L235.329 18.6504L234.473 18.7749V19.64H235.473ZM242.073 18.68L242.217 19.6696L242.945 19.5637L243.061 18.8373L242.073 18.68ZM243.953 6.88L242.994 6.59783L242.976 6.65934L242.966 6.72266L243.953 6.88ZM244.633 5.8L245.273 6.56822L245.291 6.5531L245.309 6.53715L244.633 5.8ZM250.313 5.36H251.313V4.36H250.313V5.36ZM250.313 18.76H249.313V19.76H250.313V18.76ZM261.633 18.76H262.633V17.76H261.633V18.76ZM261.633 24.96V25.96H262.633V24.96H261.633ZM250.313 24.96V23.96H249.313V24.96H250.313ZM255.993 52.4L256.309 53.3487L256.333 53.3409L256.356 53.332L255.993 52.4ZM257.233 51.84L257.707 52.7205L257.733 52.7068L257.757 52.6917L257.233 51.84ZM258.113 51.28L258.668 52.1121L258.677 52.1058L258.687 52.0992L258.113 51.28ZM260.033 51.8L259.157 52.2819L259.168 52.3014L259.179 52.3205L260.033 51.8ZM262.593 56L263.254 56.7507L263.884 56.1962L263.447 55.4795L262.593 56ZM257.873 58.72L258.194 59.6674L258.206 59.663L257.873 58.72ZM252.273 58.64C249.076 58.64 246.753 57.7517 245.15 56.1031L243.716 57.4969C245.794 59.6349 248.697 60.64 252.273 60.64V58.64ZM245.16 56.1134C243.571 54.4312 242.713 52.0135 242.713 48.72H240.713C240.713 52.3598 241.668 55.3288 243.706 57.4866L245.16 56.1134ZM242.713 48.72V24.96H240.713V48.72H242.713ZM241.713 23.96H237.233V25.96H241.713V23.96ZM237.233 23.96C236.975 23.96 236.794 23.888 236.639 23.7566L235.347 25.2834C235.885 25.7387 236.531 25.96 237.233 25.96V23.96ZM236.671 23.7852C236.587 23.7071 236.473 23.5426 236.473 23.12H234.473C234.473 23.924 234.706 24.6929 235.315 25.2548L236.671 23.7852ZM236.473 23.12V19.64H234.473V23.12H236.473ZM235.617 20.6296L242.217 19.6696L241.929 17.6904L235.329 18.6504L235.617 20.6296ZM243.061 18.8373L244.941 7.03733L242.966 6.72266L241.086 18.5227L243.061 18.8373ZM244.912 7.16216C244.998 6.87251 245.125 6.69153 245.273 6.56822L243.993 5.03178C243.501 5.4418 243.175 5.98082 242.994 6.59783L244.912 7.16216ZM245.309 6.53715C245.405 6.44944 245.57 6.36 245.913 6.36V4.36C245.19 4.36 244.502 4.56388 243.957 5.06285L245.309 6.53715ZM245.913 6.36H250.313V4.36H245.913V6.36ZM249.313 5.36V18.76H251.313V5.36H249.313ZM250.313 19.76H261.633V17.76H250.313V19.76ZM260.633 18.76V24.96H262.633V18.76H260.633ZM261.633 23.96H250.313V25.96H261.633V23.96ZM249.313 24.96V48.12H251.313V24.96H249.313ZM249.313 48.12C249.313 49.7407 249.712 51.1415 250.661 52.1614L252.125 50.7986C251.635 50.2718 251.313 49.4326 251.313 48.12H249.313ZM250.661 52.1614C251.597 53.1664 252.837 53.64 254.273 53.64V51.64C253.309 51.64 252.629 51.3402 252.125 50.7986L250.661 52.1614ZM254.273 53.64C255.015 53.64 255.701 53.5515 256.309 53.3487L255.677 51.4513C255.325 51.5685 254.864 51.64 254.273 51.64V53.64ZM256.356 53.332C256.863 53.1347 257.315 52.9314 257.707 52.7205L256.759 50.9595C256.458 51.1219 256.083 51.292 255.631 51.468L256.356 53.332ZM257.757 52.6917C258.11 52.4743 258.415 52.2809 258.668 52.1121L257.558 50.448C257.332 50.5991 257.049 50.779 256.709 50.9883L257.757 52.6917ZM258.687 52.0992C258.844 51.9892 258.9 52 258.873 52V50C258.366 50 257.916 50.1975 257.54 50.4608L258.687 52.0992ZM258.873 52C258.915 52 258.933 52.0077 258.955 52.0232C258.989 52.0461 259.064 52.1125 259.157 52.2819L260.909 51.3181C260.495 50.5654 259.819 50 258.873 50V52ZM259.179 52.3205L261.739 56.5205L263.447 55.4795L260.887 51.2795L259.179 52.3205ZM261.932 55.2493C260.703 56.3314 259.243 57.176 257.54 57.777L258.206 59.663C260.13 58.984 261.817 58.0153 263.254 56.7507L261.932 55.2493ZM257.553 57.7727C255.843 58.351 254.085 58.64 252.273 58.64V60.64C254.302 60.64 256.277 60.3156 258.194 59.6673L257.553 57.7727ZM304.612 18.2L305.531 18.5943L306.129 17.2H304.612V18.2ZM282.132 70.6L283.034 71.0315L283.043 71.013L283.051 70.9943L282.132 70.6ZM281.052 72.04L280.421 71.2639L280.409 71.2739L280.397 71.2843L281.052 72.04ZM272.812 72.56L271.904 72.1415L271.25 73.56H272.812V72.56ZM280.332 56.24L281.24 56.6585L281.428 56.2506L281.248 55.8392L280.332 56.24ZM263.692 18.2V17.2H262.163L262.776 18.6008L263.692 18.2ZM272.812 18.72L272.131 19.4528L272.158 19.4779L272.187 19.5009L272.812 18.72ZM273.692 19.88L272.767 20.2608L272.77 20.267L273.692 19.88ZM283.412 43.04L284.353 42.7013L284.344 42.6769L284.334 42.653L283.412 43.04ZM284.052 45.04L283.089 45.3096L283.095 45.3331L283.103 45.3562L284.052 45.04ZM284.652 47.04L283.686 47.3L284.588 50.6486L285.608 47.3341L284.652 47.04ZM286.012 43L285.084 42.6261L285.083 42.6286L286.012 43ZM295.332 19.88L296.259 20.2539L296.264 20.2424L295.332 19.88ZM296.252 18.68L295.675 17.863L295.663 17.8713L295.652 17.88L296.252 18.68ZM303.693 17.8057L281.213 70.2057L283.051 70.9943L305.531 18.5943L303.693 17.8057ZM281.23 70.1685C280.986 70.6792 280.709 71.03 280.421 71.2639L281.682 72.8161C282.248 72.3567 282.692 71.7475 283.034 71.0315L281.23 70.1685ZM280.397 71.2843C280.261 71.4017 279.923 71.56 279.172 71.56V73.56C280.127 73.56 281.042 73.3716 281.707 72.7957L280.397 71.2843ZM279.172 71.56H272.812V73.56H279.172V71.56ZM273.72 72.9785L281.24 56.6585L279.424 55.8215L271.904 72.1415L273.72 72.9785ZM281.248 55.8392L264.608 17.7992L262.776 18.6008L279.416 56.6408L281.248 55.8392ZM263.692 19.2H271.172V17.2H263.692V19.2ZM271.172 19.2C271.744 19.2 272.007 19.3377 272.131 19.4528L273.492 17.9872C272.87 17.409 272.04 17.2 271.172 17.2V19.2ZM272.187 19.5009C272.461 19.72 272.648 19.9712 272.767 20.2607L274.617 19.4992C274.362 18.8822 273.963 18.36 273.437 17.9391L272.187 19.5009ZM272.77 20.267L282.49 43.427L284.334 42.653L274.614 19.493L272.77 20.267ZM282.471 43.3787C282.703 44.0232 282.909 44.6668 283.089 45.3096L285.015 44.7704C284.822 44.0799 284.601 43.3902 284.353 42.7013L282.471 43.3787ZM283.103 45.3562C283.31 45.9765 283.504 46.6244 283.686 47.3L285.617 46.78C285.426 46.069 285.22 45.3835 285.001 44.7238L283.103 45.3562ZM285.608 47.3341C285.82 46.6442 286.032 45.9678 286.244 45.3048L284.339 44.6952C284.125 45.3656 283.91 46.0491 283.696 46.7459L285.608 47.3341ZM286.244 45.3048C286.45 44.6612 286.682 44.0167 286.94 43.3714L285.083 42.6286C284.808 43.3166 284.56 44.0055 284.339 44.6952L286.244 45.3048ZM286.939 43.3739L296.259 20.2539L294.404 19.5061L285.084 42.6261L286.939 43.3739ZM296.264 20.2424C296.38 19.9428 296.569 19.6922 296.852 19.48L295.652 17.88C295.081 18.3078 294.657 18.8572 294.4 19.5176L296.264 20.2424ZM296.829 19.497C297.12 19.2909 297.414 19.2 297.732 19.2V17.2C296.983 17.2 296.29 17.4291 295.675 17.863L296.829 19.497ZM297.732 19.2H304.612V17.2H297.732V19.2ZM352.098 28.24L352.399 29.1933L352.407 29.1911L352.414 29.1887L352.098 28.24ZM356.098 26.04L355.439 25.2874L356.098 26.04ZM358.497 22.72L359.421 23.1046L359.423 23.0979L358.497 22.72ZM339.138 8.72V7.72H338.138V8.72H339.138ZM339.138 29H338.138V30H339.138V29ZM373.617 59V60H375.552L374.433 58.4219L373.617 59ZM361.658 57.08L362.521 56.5761L362.502 56.5425L362.48 56.5105L361.658 57.08ZM348.217 37.68L347.391 38.2423L347.395 38.2495L348.217 37.68ZM346.737 36.24L346.256 37.1162L346.737 36.24ZM339.138 35.8V34.8H338.138V35.8H339.138ZM339.138 59V60H340.138V59H339.138ZM329.777 59H328.777V60H329.777V59ZM329.777 1.4V0.399998H328.777V1.4H329.777ZM356.497 2.56L356.224 3.52188L356.227 3.52258L356.497 2.56ZM363.258 5.88L362.624 6.65399L362.631 6.65971L363.258 5.88ZM367.138 11L366.213 11.382L366.218 11.3924L367.138 11ZM367.497 23.28L366.555 22.9464L366.55 22.9594L367.497 23.28ZM364.897 28L364.121 27.3699L364.114 27.3789L364.897 28ZM360.737 31.68L361.27 32.5265L360.737 31.68ZM355.098 34.12L354.829 33.1567L352.599 33.7778L354.58 34.9757L355.098 34.12ZM358.057 37.04L357.223 37.5906L357.232 37.6045L357.242 37.6181L358.057 37.04ZM346.497 30C348.707 30 350.679 29.738 352.399 29.1933L351.796 27.2867C350.316 27.7553 348.555 28 346.497 28V30ZM352.414 29.1887C354.116 28.6212 355.572 27.8283 356.756 26.7926L355.439 25.2874C354.489 26.1184 353.279 26.7921 351.781 27.2913L352.414 29.1887ZM356.756 26.7926C357.935 25.7608 358.827 24.5291 359.421 23.1046L357.574 22.3354C357.101 23.4709 356.393 24.4526 355.439 25.2874L356.756 26.7926ZM359.423 23.0979C360.011 21.6582 360.298 20.088 360.298 18.4H358.298C358.298 19.8586 358.051 21.1684 357.572 22.3421L359.423 23.0979ZM360.298 18.4C360.298 15.0112 359.164 12.2961 356.8 10.4172L355.555 11.9828C357.351 13.4106 358.298 15.4955 358.298 18.4H360.298ZM356.8 10.4172C354.466 8.56179 351.053 7.72 346.737 7.72V9.72C350.849 9.72 353.729 10.5315 355.555 11.9828L356.8 10.4172ZM346.737 7.72H339.138V9.72H346.737V7.72ZM338.138 8.72V29H340.138V8.72H338.138ZM339.138 30H346.497V28H339.138V30ZM373.617 58H365.258V60H373.617V58ZM365.258 58C363.91 58 363.065 57.5083 362.521 56.5761L360.794 57.5839C361.743 59.2117 363.298 60 365.258 60V58ZM362.48 56.5105L349.04 37.1105L347.395 38.2495L360.835 57.6495L362.48 56.5105ZM349.044 37.1177C348.53 36.3612 347.928 35.7537 347.219 35.3638L346.256 37.1162C346.613 37.313 346.998 37.6654 347.391 38.2423L349.044 37.1177ZM347.219 35.3638C346.465 34.9491 345.463 34.8 344.337 34.8V36.8C345.345 36.8 345.943 36.9442 346.256 37.1162L347.219 35.3638ZM344.337 34.8H339.138V36.8H344.337V34.8ZM338.138 35.8V59H340.138V35.8H338.138ZM339.138 58H329.777V60H339.138V58ZM330.777 59V1.4H328.777V59H330.777ZM329.777 2.4H346.737V0.399998H329.777V2.4ZM346.737 2.4C350.461 2.4 353.617 2.78074 356.224 3.52188L356.771 1.59812C353.938 0.792595 350.587 0.399998 346.737 0.399998V2.4ZM356.227 3.52258C358.873 4.26781 360.994 5.32025 362.624 6.65395L363.891 5.10604C362.001 3.55974 359.615 2.39885 356.769 1.59742L356.227 3.52258ZM362.631 6.65971C364.266 7.97237 365.454 9.54433 366.213 11.382L368.062 10.618C367.168 8.45566 365.769 6.61429 363.884 5.10028L362.631 6.65971ZM366.218 11.3924C367.012 13.2534 367.418 15.3443 367.418 17.68H369.418C369.418 15.1091 368.97 12.7466 368.057 10.6076L366.218 11.3924ZM367.418 17.68C367.418 19.5763 367.127 21.3292 366.555 22.9464L368.44 23.6136C369.095 21.7641 369.418 19.7837 369.418 17.68H367.418ZM366.55 22.9594C366.001 24.5809 365.192 26.0493 364.121 27.37L365.674 28.63C366.896 27.124 367.82 25.4458 368.445 23.6006L366.55 22.9594ZM364.114 27.3789C363.07 28.6963 361.77 29.8489 360.205 30.8335L361.27 32.5265C363.011 31.4311 364.485 30.1303 365.681 28.6211L364.114 27.3789ZM360.205 30.8335C358.643 31.8163 356.854 32.5929 354.829 33.1567L355.366 35.0833C357.555 34.4738 359.526 33.6237 361.27 32.5265L360.205 30.8335ZM354.58 34.9757C355.585 35.5834 356.468 36.4462 357.223 37.5906L358.892 36.4894C357.994 35.1271 356.903 34.0433 355.615 33.2643L354.58 34.9757ZM357.242 37.6181L372.802 59.5781L374.433 58.4219L358.873 36.4619L357.242 37.6181ZM400.134 41.16H401.134V40.1246L400.099 40.1606L400.134 41.16ZM392.374 41.92L392.548 42.9047L392.56 42.9024L392.374 41.92ZM387.254 43.4L387.663 44.3123L387.671 44.3088L387.679 44.3052L387.254 43.4ZM384.414 45.52L383.598 44.9413L383.592 44.9501L383.586 44.9592L384.414 45.52ZM384.014 50.72L383.093 51.1096L383.102 51.1314L383.112 51.1527L384.014 50.72ZM385.294 52.4L384.646 53.1619L384.666 53.1792L384.688 53.1954L385.294 52.4ZM387.214 53.36L386.93 54.3188L386.95 54.3249L386.971 54.3301L387.214 53.36ZM395.414 52.4L395.873 53.2884L395.878 53.2855L395.414 52.4ZM400.134 48.72L400.859 49.4088L401.134 49.1193V48.72H400.134ZM377.334 23.88L376.652 23.148L376.079 23.682L376.46 24.3667L377.334 23.88ZM400.054 18.6L399.661 19.5198L399.67 19.5233L399.678 19.5266L400.054 18.6ZM404.654 21.8L403.905 22.4626L403.912 22.4705L404.654 21.8ZM407.494 26.76L406.545 27.0762L406.548 27.0842L406.551 27.0921L407.494 26.76ZM408.494 59V60H409.494V59H408.494ZM402.774 58.64L402.244 59.488L402.263 59.5002L402.283 59.5116L402.774 58.64ZM401.694 57.08L400.724 57.3253L400.738 57.381L400.759 57.4347L401.694 57.08ZM400.854 53.76L401.823 53.5147L401.417 51.9106L400.186 53.0158L400.854 53.76ZM397.774 56.28L398.353 57.0952L398.36 57.0902L398.367 57.0851L397.774 56.28ZM394.614 58.12L394.193 57.2126L394.185 57.2167L394.614 58.12ZM391.134 59.24L390.946 58.2578L390.933 58.2602L390.921 58.2628L391.134 59.24ZM382.414 58.96L382.108 59.9122L382.113 59.9138L382.414 58.96ZM378.734 56.92L378.066 57.6642L378.071 57.669L378.077 57.6738L378.734 56.92ZM376.254 53.48L375.336 53.8761L375.339 53.8836L375.342 53.8911L376.254 53.48ZM376.614 44.08L375.745 43.5838L375.739 43.5957L376.614 44.08ZM380.774 40.08L381.295 40.9333L381.298 40.9313L380.774 40.08ZM388.414 37.12L388.177 36.1484L388.175 36.1489L388.414 37.12ZM400.134 35.8L400.157 36.7997L401.134 36.7773V35.8H400.134ZM398.254 26.52L397.499 27.1765V27.1765L398.254 26.52ZM388.574 25L388.91 25.9417L388.92 25.9382L388.93 25.9345L388.574 25ZM385.654 26.32L385.152 25.4552L385.654 26.32ZM383.454 27.68L383.984 28.528L383.996 28.5202L384.008 28.5121L383.454 27.68ZM379.894 27.84L379.269 28.6209L379.297 28.6435L379.327 28.664L379.894 27.84ZM378.894 26.68L378.02 27.1667L378.026 27.1769L378.032 27.187L378.894 26.68ZM400.099 40.1606C397.001 40.2684 394.36 40.525 392.187 40.9376L392.56 42.9024C394.601 42.515 397.133 42.265 400.169 42.1594L400.099 40.1606ZM392.199 40.9353C390.043 41.3174 388.243 41.8308 386.829 42.4948L387.679 44.3052C388.877 43.7425 390.491 43.2693 392.548 42.9047L392.199 40.9353ZM386.844 42.4877C385.439 43.1188 384.322 43.9213 383.598 44.9413L385.229 46.0987C385.679 45.4654 386.456 44.8545 387.663 44.3123L386.844 42.4877ZM383.586 44.9592C382.915 45.9492 382.574 47.0508 382.574 48.24H384.574C384.574 47.4558 384.792 46.7441 385.242 46.0808L383.586 44.9592ZM382.574 48.24C382.574 49.2985 382.735 50.2642 383.093 51.1096L384.935 50.3304C384.706 49.7892 384.574 49.1015 384.574 48.24H382.574ZM383.112 51.1527C383.489 51.9384 384 52.6128 384.646 53.1619L385.941 51.6381C385.521 51.2805 385.178 50.8349 384.915 50.2873L383.112 51.1527ZM384.688 53.1954C385.35 53.7004 386.101 54.0733 386.93 54.3188L387.498 52.4012C386.886 52.22 386.357 51.9529 385.9 51.6046L384.688 53.1954ZM386.971 54.3301C387.808 54.5392 388.703 54.64 389.654 54.64V52.64C388.844 52.64 388.113 52.5541 387.456 52.3899L386.971 54.3301ZM389.654 54.64C392.015 54.64 394.1 54.2041 395.873 53.2884L394.955 51.5116C393.527 52.2492 391.772 52.64 389.654 52.64V54.64ZM395.878 53.2855C397.619 52.3723 399.278 51.0727 400.859 49.4088L399.409 48.0312C397.949 49.5673 396.462 50.7211 394.949 51.5145L395.878 53.2855ZM401.134 48.72V41.16H399.134V48.72H401.134ZM378.015 24.612C382.441 20.4931 387.69 18.44 393.814 18.44V16.44C387.191 16.44 381.453 18.6803 376.652 23.148L378.015 24.612ZM393.814 18.44C396.051 18.44 397.993 18.8085 399.661 19.5198L400.446 17.6802C398.487 16.8449 396.27 16.44 393.814 16.44V18.44ZM399.678 19.5266C401.385 20.2195 402.788 21.1998 403.905 22.4626L405.403 21.1374C404.066 19.6269 402.402 18.4738 400.43 17.6734L399.678 19.5266ZM403.912 22.4705C405.065 23.7464 405.945 25.2764 406.545 27.0762L408.442 26.4438C407.762 24.4036 406.749 22.6269 405.396 21.1295L403.912 22.4705ZM406.551 27.0921C407.174 28.8636 407.494 30.8558 407.494 33.08H409.494C409.494 30.6642 409.147 28.4431 408.437 26.4279L406.551 27.0921ZM407.494 33.08V59H409.494V33.08H407.494ZM408.494 58H404.654V60H408.494V58ZM404.654 58C403.895 58 403.471 57.8848 403.264 57.7684L402.283 59.5116C402.93 59.8752 403.759 60 404.654 60V58ZM403.304 57.792C403.148 57.6947 402.89 57.415 402.629 56.7253L400.759 57.4347C401.084 58.2917 401.546 59.052 402.244 59.488L403.304 57.792ZM402.663 56.8347L401.823 53.5147L399.884 54.0053L400.724 57.3253L402.663 56.8347ZM400.186 53.0158C399.167 53.9299 398.165 54.7493 397.181 55.4749L398.367 57.0851C399.409 56.3174 400.46 55.4567 401.522 54.5042L400.186 53.0158ZM397.195 55.4648C396.23 56.1504 395.229 56.7326 394.193 57.2127L395.034 59.0273C396.185 58.4941 397.291 57.8496 398.353 57.0952L397.195 55.4648ZM394.185 57.2167C393.201 57.6842 392.122 58.0325 390.946 58.2578L391.322 60.2222C392.652 59.9675 393.894 59.5692 395.043 59.0233L394.185 57.2167ZM390.921 58.2628C389.776 58.5118 388.489 58.64 387.054 58.64V60.64C388.605 60.64 390.038 60.5015 391.346 60.2172L390.921 58.2628ZM387.054 58.64C385.493 58.64 384.048 58.4261 382.714 58.0061L382.113 59.9138C383.659 60.4005 385.308 60.64 387.054 60.64V58.64ZM382.719 58.0078C381.425 57.5928 380.321 56.9769 379.391 56.1662L378.077 57.6738C379.227 58.6764 380.575 59.4205 382.108 59.9122L382.719 58.0078ZM379.402 56.1758C378.472 55.3415 377.725 54.3108 377.165 53.0689L375.342 53.8911C376.009 55.3692 376.915 56.6318 378.066 57.6642L379.402 56.1758ZM377.172 53.0839C376.651 51.8754 376.374 50.4158 376.374 48.68H374.374C374.374 50.6242 374.684 52.3646 375.336 53.8761L377.172 53.0839ZM376.374 48.68C376.374 47.2903 376.737 45.9223 377.489 44.5643L375.739 43.5957C374.837 45.2243 374.374 46.923 374.374 48.68H376.374ZM377.482 44.5761C378.23 43.2674 379.476 42.045 381.295 40.9333L380.252 39.2267C378.231 40.4617 376.704 41.9059 375.746 43.5839L377.482 44.5761ZM381.298 40.9313C383.128 39.8034 385.568 38.8491 388.652 38.0911L388.175 36.1489C384.966 36.9376 382.313 37.9566 380.249 39.2287L381.298 40.9313ZM388.651 38.0916C391.731 37.3408 395.561 36.9054 400.157 36.7997L400.111 34.8003C395.426 34.908 391.443 35.3526 388.177 36.1484L388.651 38.0916ZM401.134 35.8V33.08H399.134V35.8H401.134ZM401.134 33.08C401.134 30.0296 400.486 27.5613 399.008 25.8635L397.499 27.1765C398.528 28.3587 399.134 30.2638 399.134 33.08H401.134ZM399.008 25.8635C397.516 24.1489 395.365 23.36 392.734 23.36V25.36C394.955 25.36 396.485 26.0111 397.499 27.1765L399.008 25.8635ZM392.734 23.36C391.002 23.36 389.486 23.5825 388.218 24.0655L388.93 25.9345C389.902 25.5642 391.159 25.36 392.734 25.36V23.36ZM388.237 24.0583C387.073 24.4741 386.042 24.9382 385.152 25.4552L386.156 27.1848C386.919 26.7418 387.834 26.3259 388.91 25.9417L388.237 24.0583ZM385.152 25.4552C384.311 25.9432 383.56 26.4075 382.899 26.8479L384.008 28.5121C384.628 28.0992 385.343 27.6568 386.156 27.1848L385.152 25.4552ZM382.924 26.832C382.435 27.1377 381.937 27.28 381.414 27.28V29.28C382.33 29.28 383.193 29.0223 383.984 28.528L382.924 26.832ZM381.414 27.28C381.001 27.28 380.699 27.1798 380.46 27.016L379.327 28.664C379.942 29.0868 380.653 29.28 381.414 29.28V27.28ZM380.518 27.0591C380.216 26.8172 379.962 26.5242 379.756 26.173L378.032 27.187C378.359 27.7425 378.771 28.2227 379.269 28.6209L380.518 27.0591ZM379.767 26.1933L378.207 23.3933L376.46 24.3667L378.02 27.1667L379.767 26.1933ZM426.608 23.6L425.621 23.7576L425.935 25.7291L427.326 24.2965L426.608 23.6ZM429.328 21.16L429.939 21.9518L429.942 21.9494L429.328 21.16ZM432.368 19.24L432.815 20.1344L432.368 19.24ZM435.768 18L435.531 17.0286V17.0286L435.768 18ZM445.568 18.68L445.162 19.5938L445.167 19.5962L445.568 18.68ZM449.848 21.84L449.084 22.4846L449.091 22.4932L449.848 21.84ZM452.488 26.76L451.532 27.0522L451.533 27.056L452.488 26.76ZM453.368 59V60H454.368V59H453.368ZM444.808 59H443.808V60H444.808V59ZM442.888 26.64L442.117 27.2762L442.123 27.2841L442.888 26.64ZM431.768 25.68L431.298 24.7972L431.292 24.8005L431.768 25.68ZM427.168 29.28L426.442 28.5923L426.168 28.8815V29.28H427.168ZM427.168 59V60H428.168V59H427.168ZM418.568 59H417.568V60H418.568V59ZM418.568 18.2V17.2H417.568V18.2H418.568ZM426.008 19.84L426.996 19.6824L426.986 19.6199L426.968 19.5591L426.008 19.84ZM427.326 24.2965C428.175 23.4217 429.046 22.6406 429.939 21.9518L428.717 20.3682C427.744 21.1194 426.801 21.965 425.891 22.9035L427.326 24.2965ZM429.942 21.9494C430.851 21.2423 431.809 20.6377 432.815 20.1344L431.921 18.3456C430.794 18.9089 429.725 19.5844 428.714 20.3706L429.942 21.9494ZM432.815 20.1344C433.813 19.6357 434.876 19.2476 436.006 18.9714L435.531 17.0286C434.261 17.339 433.057 17.7776 431.921 18.3456L432.815 20.1344ZM436.006 18.9714C437.118 18.6996 438.344 18.56 439.688 18.56V16.56C438.206 16.56 436.819 16.7138 435.531 17.0286L436.006 18.9714ZM439.688 18.56C441.818 18.56 443.635 18.915 445.162 19.5938L445.974 17.7662C444.142 16.9517 442.038 16.56 439.688 16.56V18.56ZM445.167 19.5962C446.74 20.2844 448.04 21.2474 449.084 22.4846L450.613 21.1954C449.362 19.7126 447.809 18.569 445.969 17.7638L445.167 19.5962ZM449.091 22.4932C450.163 23.7363 450.981 25.2494 451.532 27.0522L453.444 26.4678C452.822 24.4306 451.88 22.6637 450.605 21.1868L449.091 22.4932ZM451.533 27.056C452.086 28.8398 452.368 30.8316 452.368 33.04H454.368C454.368 30.6617 454.064 28.4669 453.443 26.464L451.533 27.056ZM452.368 33.04V59H454.368V33.04H452.368ZM453.368 58H444.808V60H453.368V58ZM445.808 59V33.04H443.808V59H445.808ZM445.808 33.04C445.808 30.1472 445.134 27.7545 443.653 25.9959L442.123 27.2841C443.202 28.5655 443.808 30.4394 443.808 33.04H445.808ZM443.66 26.0038C442.161 24.1859 439.913 23.36 437.128 23.36V25.36C439.516 25.36 441.109 26.0541 442.117 27.2762L443.66 26.0038ZM437.128 23.36C435.049 23.36 433.1 23.8383 431.298 24.7972L432.238 26.5627C433.743 25.7617 435.368 25.36 437.128 25.36V23.36ZM431.292 24.8005C429.561 25.7369 427.945 27.0055 426.442 28.5923L427.894 29.9677C429.271 28.5145 430.722 27.3831 432.244 26.5595L431.292 24.8005ZM426.168 29.28V59H428.168V29.28H426.168ZM427.168 58H418.568V60H427.168V58ZM419.568 59V18.2H417.568V59H419.568ZM418.568 19.2H423.768V17.2H418.568V19.2ZM423.768 19.2C424.2 19.2 424.457 19.2991 424.617 19.4169C424.775 19.5325 424.936 19.7355 425.048 20.1209L426.968 19.5591C426.761 18.8512 426.388 18.2341 425.799 17.8031C425.213 17.3742 424.51 17.2 423.768 17.2V19.2ZM425.021 19.9976L425.621 23.7576L427.596 23.4424L426.996 19.6824L425.021 19.9976ZM483.972 25.56L483.272 26.2742L483.972 25.56ZM471.972 25.56L471.279 24.8389L471.272 24.8458L471.972 25.56ZM470.492 33.84L471.426 33.4829L470.492 33.84ZM472.012 36.2L471.305 36.9071L471.312 36.9143L471.319 36.9214L472.012 36.2ZM474.492 37.72L474.138 38.6553L474.153 38.661L474.168 38.6662L474.492 37.72ZM489.132 58.84L488.39 59.5109L488.407 59.5294L488.425 59.5471L489.132 58.84ZM487.052 57.56L486.71 58.4998L486.723 58.5044L486.736 58.5087L487.052 57.56ZM483.972 56.88L483.837 57.8708L483.848 57.8723L483.859 57.8736L483.972 56.88ZM480.212 56.56L480.151 57.5581L480.161 57.5588L480.172 57.5592L480.212 56.56ZM476.172 56.36L476.113 57.3583L476.123 57.3589L476.133 57.3593L476.172 56.36ZM472.212 55.96L472.356 54.9705L472.036 54.9238L471.75 55.0731L472.212 55.96ZM469.052 58.36L468.303 57.697L468.298 57.703L468.293 57.7092L469.052 58.36ZM468.452 63.84L467.586 64.3397L467.593 64.352L467.6 64.3641L468.452 63.84ZM470.372 65.64L469.861 66.4999L469.873 66.5066L470.372 65.64ZM473.692 66.84L473.477 67.8167L473.481 67.8175L473.692 66.84ZM487.092 65.52L487.619 66.37L487.092 65.52ZM498.572 19.68H499.572V18.68H498.572V19.68ZM496.652 24.84L496.816 25.8264L496.826 25.8247L496.836 25.8229L496.652 24.84ZM492.572 25.52L492.407 24.5336L491.129 24.7466L491.659 25.9291L492.572 25.52ZM492.412 36.12L491.514 35.6786L491.509 35.6906L492.412 36.12ZM484.212 42.92L483.908 41.9674L484.212 42.92ZM475.452 43.72L475.32 44.7112L475.338 44.7136L475.356 44.7153L475.452 43.72ZM473.092 43.32L473.294 42.3407L472.918 42.2628L472.586 42.4573L473.092 43.32ZM471.372 44.76L472.177 45.3532L471.372 44.76ZM471.972 48.28L472.455 47.4044L471.972 48.28ZM475.012 49.2L474.865 50.1891L474.868 50.1895L475.012 49.2ZM479.372 49.56L479.405 48.5605L479.372 49.56ZM484.332 49.84L484.411 48.8431L484.332 49.84ZM489.292 50.52L489.099 51.5012L489.107 51.5027L489.114 51.5041L489.292 50.52ZM493.612 52.04L493.114 52.9071L493.125 52.9133L493.136 52.9193L493.612 52.04ZM496.692 54.88L497.532 54.3383L496.692 54.88ZM496.532 64.72L495.646 64.256L496.532 64.72ZM492.692 69.2L492.078 68.4106L492.072 68.4154L492.692 69.2ZM486.612 72.32L486.305 71.3681L486.296 71.3713L486.612 72.32ZM470.452 72.64L470.199 73.6074L470.201 73.6081L470.452 72.64ZM464.812 70.24L465.367 69.4079L465.363 69.4057L464.812 70.24ZM461.452 66.8L460.576 67.2826L460.58 67.2894L460.584 67.2961L461.452 66.8ZM462.172 57.8L461.429 57.1302L461.422 57.1384L462.172 57.8ZM467.132 54.6L467.48 55.5373L469.696 54.7135L467.562 53.6971L467.132 54.6ZM464.412 52.4L463.598 52.9812L463.604 52.9888L463.609 52.9963L464.412 52.4ZM464.732 44.96L463.902 44.4014L464.732 44.96ZM468.692 41.64L469.15 42.529L470.815 41.671L469.176 40.7648L468.692 41.64ZM463.892 37.2L463.045 37.7322L463.049 37.7377L463.892 37.2ZM463.292 25.2L462.394 24.7586L462.389 24.7706L463.292 25.2ZM466.612 21.04L465.982 20.2634L466.612 21.04ZM471.612 18.4L471.311 17.4462L471.308 17.4474L471.612 18.4ZM487.172 19.68L486.682 20.552L486.91 20.68H487.172V19.68ZM477.972 39.24C480.798 39.24 483.1 38.518 484.686 36.9001L483.258 35.4999C482.177 36.602 480.479 37.24 477.972 37.24V39.24ZM484.686 36.9001C486.23 35.3252 486.972 33.2865 486.972 30.88H484.972C484.972 32.8468 484.38 34.3548 483.258 35.4999L484.686 36.9001ZM486.972 30.88C486.972 28.429 486.235 26.3774 484.672 24.8458L483.272 26.2742C484.376 27.3559 484.972 28.851 484.972 30.88H486.972ZM484.672 24.8458C483.084 23.2899 480.788 22.6 477.972 22.6V24.6C480.489 24.6 482.193 25.2168 483.272 26.2742L484.672 24.8458ZM477.972 22.6C475.178 22.6 472.889 23.2922 471.279 24.8389L472.665 26.2811C473.775 25.2145 475.486 24.6 477.972 24.6V22.6ZM471.272 24.8458C469.709 26.3774 468.972 28.429 468.972 30.88H470.972C470.972 28.851 471.568 27.3559 472.672 26.2742L471.272 24.8458ZM468.972 30.88C468.972 32.0567 469.163 33.1657 469.558 34.1971L471.426 33.4829C471.127 32.701 470.972 31.8367 470.972 30.88H468.972ZM469.558 34.1971C469.953 35.2311 470.536 36.1381 471.305 36.9071L472.719 35.4929C472.155 34.9286 471.724 34.2622 471.426 33.4829L469.558 34.1971ZM471.319 36.9214C472.096 37.6671 473.043 38.2409 474.138 38.6553L474.846 36.7847C473.967 36.4524 473.261 36.0129 472.704 35.4786L471.319 36.9214ZM474.168 38.6662C475.306 39.0553 476.578 39.24 477.972 39.24V37.24C476.752 37.24 475.705 37.078 474.816 36.7738L474.168 38.6662ZM490.932 61C490.932 59.8855 490.597 58.8907 489.839 58.1329L488.425 59.5471C488.734 59.8559 488.932 60.3012 488.932 61H490.932ZM489.873 58.1691C489.228 57.4553 488.374 56.9468 487.368 56.6113L486.736 58.5087C487.489 58.7599 488.023 59.1047 488.39 59.5109L489.873 58.1691ZM487.394 56.6202C486.423 56.2674 485.317 56.0264 484.085 55.8864L483.859 57.8736C484.973 58.0003 485.92 58.2126 486.71 58.4998L487.394 56.6202ZM484.107 55.8892C482.898 55.7244 481.613 55.6152 480.252 55.5608L480.172 57.5592C481.477 57.6114 482.699 57.7156 483.837 57.8708L484.107 55.8892ZM480.273 55.5619C478.958 55.4814 477.604 55.4143 476.21 55.3607L476.133 57.3593C477.513 57.4123 478.852 57.4786 480.151 57.5581L480.273 55.5619ZM476.231 55.3617C474.898 55.2833 473.606 55.1528 472.356 54.9705L472.068 56.9495C473.377 57.1405 474.726 57.2767 476.113 57.3583L476.231 55.3617ZM471.75 55.0731C470.378 55.7875 469.223 56.6589 468.303 57.697L469.8 59.023C470.534 58.1944 471.485 57.4659 472.674 56.8469L471.75 55.0731ZM468.293 57.7092C467.338 58.8234 466.852 60.1341 466.852 61.6H468.852C468.852 60.6126 469.166 59.7633 469.811 59.0108L468.293 57.7092ZM466.852 61.6C466.852 62.5755 467.098 63.4945 467.586 64.3397L469.318 63.3403C469.006 62.7988 468.852 62.2245 468.852 61.6H466.852ZM467.6 64.3641C468.128 65.2224 468.899 65.9284 469.861 66.4999L470.882 64.7801C470.138 64.3382 469.629 63.8443 469.304 63.3159L467.6 64.3641ZM469.873 66.5066C470.866 67.0784 472.076 67.5084 473.477 67.8166L473.907 65.8634C472.641 65.5849 471.638 65.215 470.871 64.7734L469.873 66.5066ZM473.481 67.8175C474.93 68.1301 476.631 68.28 478.572 68.28V66.28C476.726 66.28 475.174 66.1366 473.903 65.8625L473.481 67.8175ZM478.572 68.28C482.429 68.28 485.492 67.6882 487.619 66.37L486.565 64.67C484.906 65.6985 482.288 66.28 478.572 66.28V68.28ZM487.619 66.37C489.734 65.0589 490.932 63.2631 490.932 61H488.932C488.932 62.4169 488.236 63.6344 486.565 64.67L487.619 66.37ZM497.572 19.68V22.88H499.572V19.68H497.572ZM497.572 22.88C497.572 23.1985 497.484 23.3614 497.378 23.4702C497.25 23.6003 496.988 23.7595 496.468 23.8571L496.836 25.8229C497.596 25.6805 498.294 25.3931 498.806 24.8698C499.34 24.3252 499.572 23.6281 499.572 22.88H497.572ZM496.487 23.8536L492.407 24.5336L492.736 26.5064L496.816 25.8264L496.487 23.8536ZM491.659 25.9291C492.289 27.3328 492.612 28.9111 492.612 30.68H494.612C494.612 28.6622 494.242 26.8006 493.484 25.1109L491.659 25.9291ZM492.612 30.68C492.612 32.543 492.24 34.203 491.515 35.6787L493.309 36.5613C494.184 34.7836 494.612 32.817 494.612 30.68H492.612ZM491.509 35.6906C490.798 37.1856 489.809 38.4558 488.535 39.5094L489.809 41.0506C491.308 39.8109 492.479 38.3077 493.315 36.5494L491.509 35.6906ZM488.535 39.5094C487.257 40.5655 485.721 41.3883 483.908 41.9674L484.516 43.8726C486.543 43.2251 488.313 42.2879 489.809 41.0506L488.535 39.5094ZM483.908 41.9674C482.096 42.546 480.12 42.84 477.972 42.84V44.84C480.304 44.84 482.488 44.5206 484.516 43.8726L483.908 41.9674ZM477.972 42.84C477.15 42.84 476.342 42.8015 475.548 42.7246L475.356 44.7153C476.215 44.7985 477.087 44.84 477.972 44.84V42.84ZM475.584 42.7288C474.807 42.6252 474.044 42.4958 473.294 42.3407L472.889 44.2993C473.686 44.4642 474.497 44.6015 475.32 44.7112L475.584 42.7288ZM472.586 42.4573C471.742 42.9523 471.047 43.515 470.567 44.1668L472.177 45.3532C472.443 44.9917 472.895 44.5944 473.598 44.1827L472.586 42.4573ZM470.567 44.1668C470.09 44.8134 469.812 45.5367 469.812 46.32H471.812C471.812 46.0366 471.907 45.7199 472.177 45.3532L470.567 44.1668ZM469.812 46.32C469.812 46.9103 469.943 47.4753 470.241 47.9793C470.539 48.4831 470.972 48.8703 471.489 49.1556L472.455 47.4044C472.199 47.263 472.051 47.1102 471.962 46.9607C471.874 46.8113 471.812 46.6097 471.812 46.32H469.812ZM471.489 49.1556C472.401 49.6589 473.54 49.9919 474.865 50.1891L475.159 48.2109C473.977 48.0348 473.089 47.7544 472.455 47.4044L471.489 49.1556ZM474.868 50.1895C476.193 50.3828 477.684 50.5052 479.339 50.5595L479.405 48.5605C477.806 48.5081 476.391 48.3906 475.156 48.2105L474.868 50.1895ZM479.339 50.5595C480.95 50.6123 482.588 50.7047 484.253 50.8369L484.411 48.8431C482.716 48.7086 481.047 48.6144 479.405 48.5605L479.339 50.5595ZM484.253 50.8369C485.895 50.9672 487.51 51.1887 489.099 51.5012L489.485 49.5388C487.82 49.2113 486.129 48.9795 484.411 48.8431L484.253 50.8369ZM489.114 51.5041C490.644 51.78 491.973 52.2518 493.114 52.9071L494.11 51.1729C492.744 50.3882 491.193 49.8467 489.469 49.5359L489.114 51.5041ZM493.136 52.9193C494.271 53.5342 495.171 54.366 495.851 55.4217L497.532 54.3383C496.666 52.994 495.513 51.9325 494.088 51.1607L493.136 52.9193ZM495.851 55.4217C496.49 56.4134 496.852 57.7676 496.852 59.56H498.852C498.852 57.5124 498.44 55.7466 497.532 54.3383L495.851 55.4217ZM496.852 59.56C496.852 61.146 496.457 62.7078 495.646 64.256L497.418 65.184C498.367 63.3722 498.852 61.494 498.852 59.56H496.852ZM495.646 64.256C494.84 65.7947 493.659 67.181 492.078 68.4107L493.306 69.9894C495.085 68.6057 496.464 67.0053 497.418 65.184L495.646 64.256ZM492.072 68.4154C490.529 69.6351 488.613 70.6245 486.305 71.3682L486.919 73.2718C489.41 72.4689 491.549 71.3782 493.312 69.9846L492.072 68.4154ZM486.296 71.3713C484.017 72.131 481.393 72.52 478.412 72.52V74.52C481.564 74.52 484.407 74.109 486.928 73.2687L486.296 71.3713ZM478.412 72.52C475.433 72.52 472.867 72.2322 470.702 71.6719L470.201 73.6081C472.57 74.2212 475.311 74.52 478.412 74.52V72.52ZM470.705 71.6726C468.545 71.1069 466.773 70.3458 465.367 69.408L464.257 71.0721C465.89 72.1608 467.879 72.9998 470.199 73.6074L470.705 71.6726ZM465.363 69.4057C463.976 68.4891 462.976 67.4511 462.32 66.3039L460.584 67.2961C461.421 68.7623 462.661 70.0176 464.261 71.0743L465.363 69.4057ZM462.328 66.3174C461.684 65.15 461.372 63.9551 461.372 62.72H459.372C459.372 64.3116 459.779 65.8366 460.576 67.2826L462.328 66.3174ZM461.372 62.72C461.372 61.0281 461.893 59.6276 462.922 58.4616L461.422 57.1384C460.051 58.6924 459.372 60.5719 459.372 62.72H461.372ZM462.914 58.4698C464.013 57.2522 465.52 56.2663 467.48 55.5373L466.783 53.6627C464.584 54.4804 462.784 55.6278 461.429 57.1302L462.914 58.4698ZM467.562 53.6971C466.579 53.2292 465.804 52.5972 465.215 51.8037L463.609 52.9963C464.406 54.0695 465.445 54.9042 466.702 55.5029L467.562 53.6971ZM465.226 51.8188C464.714 51.1025 464.412 50.0987 464.412 48.72H462.412C462.412 50.3813 462.776 51.8309 463.598 52.9812L465.226 51.8188ZM464.412 48.72C464.412 47.7727 464.758 46.7111 465.561 45.5186L463.902 44.4014C462.946 45.8222 462.412 47.2673 462.412 48.72H464.412ZM465.561 45.5186C466.326 44.383 467.502 43.378 469.15 42.529L468.234 40.751C466.362 41.7153 464.898 42.9237 463.902 44.4014L465.561 45.5186ZM469.176 40.7648C467.286 39.7204 465.813 38.353 464.735 36.6623L463.049 37.7377C464.317 39.7271 466.045 41.3196 468.208 42.5152L469.176 40.7648ZM464.739 36.6678C463.678 34.9799 463.132 32.9959 463.132 30.68H461.132C461.132 33.3241 461.76 35.6868 463.045 37.7322L464.739 36.6678ZM463.132 30.68C463.132 28.7832 463.493 27.1059 464.195 25.6294L462.389 24.7706C461.544 26.5474 461.132 28.5235 461.132 30.68H463.132ZM464.189 25.6413C464.925 24.1449 465.94 22.8725 467.242 21.8166L465.982 20.2634C464.457 21.5008 463.259 23.0017 462.395 24.7587L464.189 25.6413ZM467.242 21.8166C468.549 20.7563 470.102 19.9321 471.916 19.3526L471.308 17.4474C469.282 18.0946 467.502 19.0303 465.982 20.2634L467.242 21.8166ZM471.912 19.3538C473.751 18.7746 475.768 18.48 477.972 18.48V16.48C475.589 16.48 473.366 16.7987 471.311 17.4462L471.912 19.3538ZM477.972 18.48C481.351 18.48 484.243 19.1829 486.682 20.552L487.661 18.8079C484.874 17.2438 481.633 16.48 477.972 16.48V18.48ZM487.172 20.68H498.572V18.68H487.172V20.68ZM531.422 34V35H532.422V34H531.422ZM530.782 30L529.829 30.304L529.833 30.3163L529.837 30.3285L530.782 30ZM528.982 26.76L528.223 27.4108L528.227 27.4162L528.232 27.4216L528.982 26.76ZM525.982 24.6L525.568 25.5104L525.58 25.516L525.593 25.5212L525.982 24.6ZM514.542 26.48L515.249 27.1871L514.542 26.48ZM511.142 34L510.153 33.8529L509.982 35H511.142V34ZM510.902 39.28V38.28H509.855L509.903 39.3259L510.902 39.28ZM511.982 45.32L511.041 45.6582L511.043 45.6629L511.982 45.32ZM514.422 49.52L513.68 50.191L513.689 50.2004L514.422 49.52ZM518.102 52.04L517.734 52.9697L517.744 52.9738L517.755 52.9777L518.102 52.04ZM527.262 52.28L527.553 53.2367L527.562 53.2338L527.572 53.2307L527.262 52.28ZM530.462 51L530.909 51.8944L530.919 51.8892L530.93 51.8838L530.462 51ZM532.782 49.72L533.286 50.5838L533.299 50.5761L533.312 50.568L532.782 49.72ZM536.142 49.92L535.323 50.4935L535.336 50.5126L535.35 50.5312L536.142 49.92ZM538.582 53.08L539.346 53.7252L539.867 53.1081L539.373 52.4688L538.582 53.08ZM535.142 56.12L535.684 56.96L535.142 56.12ZM531.062 58.16L531.394 59.1033L531.401 59.1006L531.409 59.0977L531.062 58.16ZM526.622 59.24L526.483 58.2497L526.474 58.2509L526.466 58.2522L526.622 59.24ZM514.302 58.2L513.93 59.1286L513.943 59.1333L514.302 58.2ZM508.022 54L507.299 54.6912L507.304 54.6966L508.022 54ZM503.862 47.16L502.922 47.501L502.925 47.5091L503.862 47.16ZM503.702 29.84L502.764 29.4933L502.761 29.5024L503.702 29.84ZM507.542 23.44L506.808 22.7604L506.803 22.7662L507.542 23.44ZM513.622 19.16L514.023 20.0759L514.028 20.0738L513.622 19.16ZM528.702 18.8L528.341 19.7325L528.351 19.7363L528.702 18.8ZM534.222 22.36L534.935 21.659L534.222 22.36ZM537.822 28.16L536.885 28.5088L536.89 28.5219L537.822 28.16ZM538.702 38.6L537.862 38.0567L538.702 38.6ZM532.422 34C532.422 32.4602 532.194 31.0146 531.726 29.6715L529.837 30.3285C530.224 31.4387 530.422 32.6598 530.422 34H532.422ZM531.735 29.696C531.296 28.3224 530.631 27.1178 529.732 26.0984L528.232 27.4216C528.933 28.2156 529.468 29.1709 529.829 30.304L531.735 29.696ZM529.741 26.1092C528.834 25.0513 527.705 24.242 526.371 23.6787L525.593 25.5212C526.659 25.9713 527.529 26.6021 528.223 27.4108L529.741 26.1092ZM526.396 23.6896C525.069 23.0866 523.563 22.8 521.902 22.8V24.8C523.334 24.8 524.548 25.0467 525.568 25.5104L526.396 23.6896ZM521.902 22.8C518.583 22.8 515.851 23.7566 513.835 25.7729L515.249 27.1871C516.806 25.63 518.981 24.8 521.902 24.8V22.8ZM513.835 25.7729C511.858 27.7501 510.655 30.476 510.153 33.8529L512.131 34.1471C512.589 31.0706 513.653 28.7832 515.249 27.1871L513.835 25.7729ZM511.142 35H531.422V33H511.142V35ZM509.903 39.3259C510.013 41.7192 510.386 43.8355 511.041 45.6582L512.923 44.9818C512.351 43.3912 512.004 41.4808 511.901 39.2341L509.903 39.3259ZM511.043 45.6629C511.692 47.4421 512.566 48.9595 513.68 50.1909L515.163 48.8491C514.251 47.8405 513.498 46.5579 512.921 44.9771L511.043 45.6629ZM513.689 50.2004C514.83 51.429 516.181 52.3545 517.734 52.9697L518.47 51.1103C517.196 50.6055 516.094 49.851 515.155 48.8395L513.689 50.2004ZM517.755 52.9777C519.321 53.5578 521.04 53.84 522.902 53.84V51.84C521.243 51.84 519.763 51.5889 518.449 51.1022L517.755 52.9777ZM522.902 53.84C524.652 53.84 526.208 53.646 527.553 53.2367L526.971 51.3233C525.862 51.6606 524.512 51.84 522.902 51.84V53.84ZM527.572 53.2307C528.834 52.8193 529.948 52.3749 530.909 51.8944L530.015 50.1056C529.162 50.5318 528.143 50.9407 526.952 51.3293L527.572 53.2307ZM530.93 51.8838C531.844 51.3996 532.63 50.9661 533.286 50.5838L532.278 48.8562C531.653 49.2206 530.893 49.6404 529.994 50.1162L530.93 51.8838ZM533.312 50.568C533.856 50.228 534.258 50.12 534.542 50.12V48.12C533.759 48.12 532.988 48.412 532.252 48.872L533.312 50.568ZM534.542 50.12C534.934 50.12 535.15 50.2473 535.323 50.4935L536.961 49.3465C536.387 48.526 535.536 48.12 534.542 48.12V50.12ZM535.35 50.5312L537.79 53.6912L539.373 52.4688L536.933 49.3088L535.35 50.5312ZM537.818 52.4348C536.866 53.5616 535.794 54.5086 534.599 55.28L535.684 56.96C537.05 56.0781 538.271 54.9984 539.346 53.7252L537.818 52.4348ZM534.599 55.28C533.381 56.0667 532.087 56.7141 530.715 57.2223L531.409 59.0977C532.917 58.5393 534.343 57.8266 535.684 56.96L534.599 55.28ZM530.73 57.2167C529.353 57.7012 527.938 58.0455 526.483 58.2497L526.761 60.2303C528.346 60.0078 529.891 59.6321 531.394 59.1033L530.73 57.2167ZM526.466 58.2522C524.994 58.4846 523.566 58.6 522.182 58.6V60.6C523.678 60.6 525.21 60.4754 526.778 60.2278L526.466 58.2522ZM522.182 58.6C519.467 58.6 516.963 58.1522 514.661 57.2667L513.943 59.1333C516.494 60.1144 519.243 60.6 522.182 60.6V58.6ZM514.673 57.2715C512.403 56.3632 510.427 55.0418 508.739 53.3034L507.304 54.6966C509.19 56.6382 511.401 58.1168 513.93 59.1285L514.673 57.2715ZM508.745 53.3088C507.091 51.5799 505.771 49.4212 504.799 46.8109L502.925 47.5091C503.979 50.3388 505.433 52.7401 507.299 54.6912L508.745 53.3088ZM504.802 46.819C503.863 44.2299 503.382 41.2157 503.382 37.76H501.382C501.382 41.3976 501.888 44.6502 502.922 47.501L504.802 46.819ZM503.382 37.76C503.382 35.0387 503.805 32.5138 504.643 30.1776L502.761 29.5024C501.839 32.0728 501.382 34.828 501.382 37.76H503.382ZM504.64 30.1866C505.505 27.8461 506.72 25.8257 508.281 24.1138L506.803 22.7662C505.057 24.6809 503.712 26.9272 502.764 29.4933L504.64 30.1866ZM508.275 24.1196C509.858 22.4119 511.769 21.0635 514.023 20.0759L513.221 18.2441C510.728 19.3365 508.586 20.8415 506.808 22.7604L508.275 24.1196ZM514.028 20.0738C516.283 19.0718 518.848 18.56 521.742 18.56V16.56C518.609 16.56 515.761 17.1149 513.216 18.2462L514.028 20.0738ZM521.742 18.56C524.137 18.56 526.333 18.9545 528.341 19.7324L529.063 17.8676C526.804 16.9922 524.36 16.56 521.742 16.56V18.56ZM528.351 19.7363C530.352 20.4869 532.068 21.595 533.509 23.061L534.935 21.659C533.283 19.9783 531.318 18.7131 529.053 17.8637L528.351 19.7363ZM533.509 23.061C534.946 24.5236 536.075 26.3328 536.885 28.5087L538.759 27.8113C537.862 25.4005 536.591 23.3431 534.935 21.659L533.509 23.061ZM536.89 28.5219C537.717 30.653 538.142 33.1135 538.142 35.92H540.142C540.142 32.9132 539.687 30.2003 538.754 27.7981L536.89 28.5219ZM538.142 35.92C538.142 36.5552 538.107 37.0535 538.045 37.428C537.981 37.8186 537.9 37.9983 537.862 38.0567L539.541 39.1432C539.797 38.7483 539.936 38.2548 540.019 37.752C540.104 37.2332 540.142 36.6181 540.142 35.92H538.142ZM537.862 38.0567C537.826 38.1135 537.695 38.28 537.102 38.28V40.28C538.055 40.28 538.992 39.9931 539.541 39.1432L537.862 38.0567ZM537.102 38.28H510.902V40.28H537.102V38.28Z" fill="#EBEBEB" mask="url(#path-1-outside-1_343_367)"/>
</svg>
