<svg width="14" height="14" viewBox="0 0 14 14" fill="none" xmlns="http://www.w3.org/2000/svg">
<g clip-path="url(#clip0_468_1710)">
<path d="M12.9637 0.00195312H1.03359C0.462109 0.00195312 0 0.453125 0 1.01094V12.9902C0 13.548 0.462109 14.002 1.03359 14.002H12.9637C13.5352 14.002 14 13.548 14 12.993V1.01094C14 0.453125 13.5352 0.00195312 12.9637 0.00195312ZM4.15352 11.932H2.07539V5.24922H4.15352V11.932ZM3.11445 4.33867C2.44727 4.33867 1.90859 3.8 1.90859 3.13555C1.90859 2.47109 2.44727 1.93242 3.11445 1.93242C3.77891 1.93242 4.31758 2.47109 4.31758 3.13555C4.31758 3.79727 3.77891 4.33867 3.11445 4.33867ZM11.9301 11.932H9.85469V8.68359C9.85469 7.90977 9.84101 6.91172 8.77461 6.91172C7.69453 6.91172 7.53047 7.75664 7.53047 8.62891V11.932H5.45781V5.24922H7.44844V6.1625H7.47578C7.75195 5.6375 8.43008 5.08242 9.43906 5.08242C11.5418 5.08242 11.9301 6.46602 11.9301 8.26523V11.932Z" fill="white"/>
</g>
<defs>
<clipPath id="clip0_468_1710">
<rect width="14" height="14" fill="white" transform="translate(0 0.00195312)"/>
</clipPath>
</defs>
</svg>
